{
    "created": "2020-01-16T06:10:46.813120Z",
    "digest": "55133266c1a1f81159dda3397c43693bdbe9d3b6cca168902b92ec7780cf1e4a",
    "id": "f19607e1-3680-425d-80a6-47dd3a65b31b",
    "inputs": [
        {
            "name": "inputs"
        }
    ],
    "outputs": [
        {
            "data": "steps.7.produce",
            "name": "output predictions"
        }
    ],
    "schema": "https://metadata.datadrivendiscovery.org/schemas/v0/pipeline.json",
    "steps": [
        {
            "arguments": {
                "inputs": {
                    "data": "inputs.0",
                    "type": "CONTAINER"
                }
            },
            "outputs": [
                {
                    "id": "produce"
                }
            ],
            "primitive": {
                "digest": "422744651afd5995d029a227a1dd7b1696038816b7eb9601f37d661757812aee",
                "id": "4b42ce1e-9b98-4a25-b68e-fad13311eb65",
                "name": "Extract a DataFrame from a Dataset",
                "python_path": "d3m.primitives.data_transformation.dataset_to_dataframe.Common",
                "version": "0.3.0"
            },
            "type": "PRIMITIVE"
        },
        {
            "arguments": {
                "inputs": {
                    "data": "steps.0.produce",
                    "type": "CONTAINER"
                }
            },
            "hyperparams": {
                "columns": {
                    "data": [
                        1,
                        4
                    ],
                    "type": "VALUE"
                },
                "semantic_types": {
                    "data": [
                        "https://metadata.datadrivendiscovery.org/types/Attribute"
                    ],
                    "type": "VALUE"
                }
            },
            "outputs": [
                {
                    "id": "produce"
                }
            ],
            "primitive": {
                "digest": "1ce3100831f0fe7c10aa54f4957a272051f179e6815f2d43088a25d62ed81cff",
                "id": "3002bc5b-fa47-4a3d-882e-a8b5f3d756aa",
                "name": "Remove semantic types from columns",
                "python_path": "d3m.primitives.data_transformation.remove_semantic_types.Common",
                "version": "0.1.0"
            },
            "type": "PRIMITIVE"
        },
        {
            "arguments": {
                "inputs": {
                    "data": "steps.1.produce",
                    "type": "CONTAINER"
                }
            },
            "hyperparams": {
                "semantic_types": {
                    "data": [
                        "https://metadata.datadrivendiscovery.org/types/Attribute"
                    ],
                    "type": "VALUE"
                }
            },
            "outputs": [
                {
                    "id": "produce"
                }
            ],
            "primitive": {
                "digest": "30cceb9812b430d6550d54766b4f674b68b92531fc2ad63f56818ea002399c13",
                "id": "4503a4c6-42f7-45a1-a1d4-ed69699cf5e1",
                "name": "Extracts columns by semantic type",
                "python_path": "d3m.primitives.data_transformation.extract_columns_by_semantic_types.Common",
                "version": "0.3.0"
            },
            "type": "PRIMITIVE"
        },
        {
            "arguments": {
                "inputs": {
                    "data": "steps.2.produce",
                    "type": "CONTAINER"
                }
            },
            "outputs": [
                {
                    "id": "produce"
                }
            ],
            "primitive": {
                "digest": "eb5dbe1ea5f37a394864ca802b93228333d60a1cd8f66901ccde8e1b71f98586",
                "id": "854727ed-c82c-3137-ac59-fd52bc9ba385",
                "name": "sklearn.preprocessing.data.RobustScaler",
                "python_path": "d3m.primitives.data_preprocessing.robust_scaler.SKlearn",
                "version": "2019.6.7"
            },
            "type": "PRIMITIVE"
        },
        {
            "arguments": {
                "inputs": {
                    "data": "steps.1.produce",
                    "type": "CONTAINER"
                }
            },
            "hyperparams": {
                "semantic_types": {
                    "data": [
                        "https://metadata.datadrivendiscovery.org/types/TrueTarget"
                    ],
                    "type": "VALUE"
                }
            },
            "outputs": [
                {
                    "id": "produce"
                }
            ],
            "primitive": {
                "digest": "30cceb9812b430d6550d54766b4f674b68b92531fc2ad63f56818ea002399c13",
                "id": "4503a4c6-42f7-45a1-a1d4-ed69699cf5e1",
                "name": "Extracts columns by semantic type",
                "python_path": "d3m.primitives.data_transformation.extract_columns_by_semantic_types.Common",
                "version": "0.3.0"
            },
            "type": "PRIMITIVE"
        },
        {
            "arguments": {
                "inputs": {
                    "data": "steps.3.produce",
                    "type": "CONTAINER"
                },
                "outputs": {
                    "data": "steps.4.produce",
                    "type": "CONTAINER"
                }
            },
            "hyperparams": {
                "method": {
                    "data": "BayesFactor",
                    "type": "VALUE"
                },
                "nbins": {
                    "data": 2,
                    "type": "VALUE"
                }
            },
            "outputs": [
                {
                    "id": "produce"
                }
            ],
            "primitive": {
                "digest": "4387b4b87442c824167f00a0466e021a72a75c1e046ac12ec1fb6452c9cd1a69",
                "id": "9d1a2e58-5f97-386c-babd-5a9b4e9b6d6c",
                "name": "STMBplus_auto feature selector",
                "python_path": "d3m.primitives.feature_selection.simultaneous_markov_blanket.AutoRPI",
                "version": "v2020.1.9"
            },
            "type": "PRIMITIVE"
        },
        {
            "arguments": {
                "inputs": {
                    "data": "steps.5.produce",
                    "type": "CONTAINER"
                },
                "outputs": {
                    "data": "steps.4.produce",
                    "type": "CONTAINER"
                }
            },
            "hyperparams": {
                "n_estimators": {
                    "data": 2,
                    "type": "VALUE"
                }
            },
            "outputs": [
                {
                    "id": "produce"
                }
            ],
            "primitive": {
                "digest": "bdd395b8100e310361838c8c71032c9e53e9e8eb69a6c42aef84a30cbe1fe2d5",
                "id": "1b2a32a6-0ec5-3ca0-9386-b8b1f1b831d1",
                "name": "sklearn.ensemble.bagging.BaggingClassifier",
                "python_path": "d3m.primitives.classification.bagging.SKlearn",
                "version": "2019.6.7"
            },
            "type": "PRIMITIVE"
        },
        {
            "arguments": {
                "inputs": {
                    "data": "steps.6.produce",
                    "type": "CONTAINER"
                },
                "reference": {
                    "data": "steps.0.produce",
                    "type": "CONTAINER"
                }
            },
            "outputs": [
                {
                    "id": "produce"
                }
            ],
            "primitive": {
                "digest": "2994d9885ddeb72f5a47a8fb04e27fe3f684adebf7c5dc27cb56392475dbb29c",
                "id": "8d38b340-f83f-4877-baaa-162f8e551736",
                "name": "Construct pipeline predictions output",
                "python_path": "d3m.primitives.data_transformation.construct_predictions.Common",
                "version": "0.3.0"
            },
            "type": "PRIMITIVE"
        }
    ]
}