{
    "id": "dce5255d-b63c-4601-8ace-d63b42d6d03e",
    "version": "1.0.0",
    "name": "MlpClassifier",
    "keywords": [
        "remote sensing",
        "neural network",
        "classification",
        "explainability",
        "GradCam",
        "GuidedBackProp",
        "GradCam-GuidedBackProp"
    ],
    "source": {
        "name": "Distil",
        "contact": "mailto:jeffrey.gleason@kungfu.ai",
        "uris": [
            "https://github.com/kungfuai/d3m-primitives"
        ]
    },
    "installation": [
        {
            "type": "PIP",
            "package": "cython",
            "version": "0.29.16"
        },
        {
            "type": "PIP",
            "package_uri": "git+https://github.com/kungfuai/d3m-primitives.git@66a2eac2d8f31fe3d892ffc5f1b7a56c4fbfd6af#egg=kf-d3m-primitives"
        },
        {
            "type": "UBUNTU",
            "package": "zlib1g-dev",
            "version": "1:1.2.11.dfsg-0ubuntu2"
        },
        {
            "type": "UBUNTU",
            "package": "liblzo2-dev",
            "version": "2.08-1.2"
        },
        {
            "type": "PIP",
            "package": "python-lzo",
            "version": "1.12"
        }
    ],
    "python_path": "d3m.primitives.remote_sensing.mlp.MlpClassifier",
    "algorithm_types": [
        "MULTILAYER_PERCEPTRON"
    ],
    "primitive_family": "REMOTE_SENSING",
    "can_use_gpus": true,
    "schema": "https://metadata.datadrivendiscovery.org/schemas/v0/primitive.json",
    "original_python_path": "kf_d3m_primitives.remote_sensing.classifier.mlp_classifier.MlpClassifierPrimitive",
    "primitive_code": {
        "class_type_arguments": {
            "Inputs": "d3m.container.pandas.DataFrame",
            "Outputs": "d3m.container.pandas.DataFrame",
            "Params": "kf_d3m_primitives.remote_sensing.classifier.mlp_classifier.Params",
            "Hyperparams": "kf_d3m_primitives.remote_sensing.classifier.mlp_classifier.Hyperparams"
        },
        "interfaces_version": "2020.11.3",
        "interfaces": [
            "supervised_learning.SupervisedLearnerPrimitiveBase",
            "base.PrimitiveBase"
        ],
        "hyperparams": {
            "weights_filepath": {
                "type": "d3m.metadata.hyperparams.Hyperparameter",
                "default": "model_weights.pth",
                "structural_type": "str",
                "semantic_types": [
                    "https://metadata.datadrivendiscovery.org/types/ControlParameter"
                ],
                "description": "weights of trained model will be saved to this filepath"
            },
            "image_dim": {
                "type": "d3m.metadata.hyperparams.UniformInt",
                "default": 120,
                "structural_type": "int",
                "semantic_types": [
                    "https://metadata.datadrivendiscovery.org/types/ControlParameter"
                ],
                "description": "input dimension of image (height and width)",
                "lower": 1,
                "upper": 512,
                "lower_inclusive": true,
                "upper_inclusive": true
            },
            "feature_dim": {
                "type": "d3m.metadata.hyperparams.UniformInt",
                "default": 2048,
                "structural_type": "int",
                "semantic_types": [
                    "https://metadata.datadrivendiscovery.org/types/ControlParameter"
                ],
                "description": "feature dimension after reshaping flattened feature vector",
                "lower": 1,
                "upper": 9223372036854775807,
                "lower_inclusive": true,
                "upper_inclusive": true
            },
            "batch_size": {
                "type": "d3m.metadata.hyperparams.UniformInt",
                "default": 256,
                "structural_type": "int",
                "semantic_types": [
                    "https://metadata.datadrivendiscovery.org/types/TuningParameter"
                ],
                "description": "training and inference batch size",
                "lower": 1,
                "upper": 512,
                "lower_inclusive": true,
                "upper_inclusive": true
            },
            "epochs": {
                "type": "d3m.metadata.hyperparams.UniformInt",
                "default": 25,
                "structural_type": "int",
                "semantic_types": [
                    "https://metadata.datadrivendiscovery.org/types/TuningParameter"
                ],
                "description": "how many epochs for which to finetune classification head (happens first)",
                "lower": 0,
                "upper": 9223372036854775807,
                "lower_inclusive": true,
                "upper_inclusive": false
            },
            "learning_rate": {
                "type": "d3m.metadata.hyperparams.Uniform",
                "default": 0.1,
                "structural_type": "float",
                "semantic_types": [
                    "https://metadata.datadrivendiscovery.org/types/TuningParameter"
                ],
                "description": "learning rate",
                "lower": 0.0,
                "upper": 1.0,
                "lower_inclusive": true,
                "upper_inclusive": false
            },
            "explain_all_classes": {
                "type": "d3m.metadata.hyperparams.UniformBool",
                "default": false,
                "structural_type": "bool",
                "semantic_types": [
                    "https://metadata.datadrivendiscovery.org/types/ControlParameter"
                ],
                "description": "whether to return explanations for all classes or only the predicted class"
            },
            "all_confidences": {
                "type": "d3m.metadata.hyperparams.UniformBool",
                "default": true,
                "structural_type": "bool",
                "semantic_types": [
                    "https://metadata.datadrivendiscovery.org/types/ControlParameter"
                ],
                "description": "whether to return explanations all classes and all confidences from produce method"
            }
        },
        "arguments": {
            "hyperparams": {
                "type": "kf_d3m_primitives.remote_sensing.classifier.mlp_classifier.Hyperparams",
                "kind": "RUNTIME"
            },
            "random_seed": {
                "type": "int",
                "kind": "RUNTIME",
                "default": 0
            },
            "timeout": {
                "type": "typing.Union[NoneType, float]",
                "kind": "RUNTIME",
                "default": null
            },
            "iterations": {
                "type": "typing.Union[NoneType, int]",
                "kind": "RUNTIME",
                "default": null
            },
            "produce_methods": {
                "type": "typing.Sequence[str]",
                "kind": "RUNTIME"
            },
            "inputs": {
                "type": "d3m.container.pandas.DataFrame",
                "kind": "PIPELINE"
            },
            "outputs": {
                "type": "d3m.container.pandas.DataFrame",
                "kind": "PIPELINE"
            },
            "params": {
                "type": "kf_d3m_primitives.remote_sensing.classifier.mlp_classifier.Params",
                "kind": "RUNTIME"
            }
        },
        "class_methods": {},
        "instance_methods": {
            "__init__": {
                "kind": "OTHER",
                "arguments": [
                    "hyperparams",
                    "random_seed"
                ],
                "returns": "NoneType"
            },
            "fit": {
                "kind": "OTHER",
                "arguments": [
                    "timeout",
                    "iterations"
                ],
                "returns": "d3m.primitive_interfaces.base.CallResult[NoneType]",
                "description": "Fits mlp classification head using training data from set_training_data and hyperparameters\n\nKeyword Arguments:\n    timeout {float} -- timeout, considered (default: {None})\n    iterations {int} -- iterations, considered (default: {None})\n\nReturns:\n    CallResult[None]\n\nParameters\n----------\ntimeout:\n    A maximum time this primitive should be fitting during this method call, in seconds.\niterations:\n    How many of internal iterations should the primitive do.\n\nReturns\n-------\nA ``CallResult`` with ``None`` value."
            },
            "fit_multi_produce": {
                "kind": "OTHER",
                "arguments": [
                    "produce_methods",
                    "inputs",
                    "outputs",
                    "timeout",
                    "iterations"
                ],
                "returns": "d3m.primitive_interfaces.base.MultiCallResult",
                "description": "A method calling ``fit`` and after that multiple produce methods at once.\n\nThis method allows primitive author to implement an optimized version of both fitting\nand producing a primitive on same data.\n\nIf any additional method arguments are added to primitive's ``set_training_data`` method\nor produce method(s), or removed from them, they have to be added to or removed from this\nmethod as well. This method should accept an union of all arguments accepted by primitive's\n``set_training_data`` method and produce method(s) and then use them accordingly when\ncomputing results. Despite accepting all arguments they can be passed as ``None`` by the caller\nwhen they are not needed by any of the produce methods in ``produce_methods`` and ``set_training_data``.\n\nThe default implementation of this method just calls first ``set_training_data`` method,\n``fit`` method, and all produce methods listed in ``produce_methods`` in order and is\npotentially inefficient.\n\nParameters\n----------\nproduce_methods:\n    A list of names of produce methods to call.\ninputs:\n    The inputs given to ``set_training_data`` and all produce methods.\noutputs:\n    The outputs given to ``set_training_data``.\ntimeout:\n    A maximum time this primitive should take to both fit the primitive and produce outputs\n    for all produce methods listed in ``produce_methods`` argument, in seconds.\niterations:\n    How many of internal iterations should the primitive do for both fitting and producing\n    outputs of all produce methods.\n\nReturns\n-------\nA dict of values for each produce method wrapped inside ``MultiCallResult``."
            },
            "get_params": {
                "kind": "OTHER",
                "arguments": [],
                "returns": "kf_d3m_primitives.remote_sensing.classifier.mlp_classifier.Params",
                "description": "Returns parameters of this primitive.\n\nParameters are all parameters of the primitive which can potentially change during a life-time of\na primitive. Parameters which cannot are passed through constructor.\n\nParameters should include all data which is necessary to create a new instance of this primitive\nbehaving exactly the same as this instance, when the new instance is created by passing the same\nparameters to the class constructor and calling ``set_params``.\n\nNo other arguments to the method are allowed (except for private arguments).\n\nReturns\n-------\nAn instance of parameters."
            },
            "multi_produce": {
                "kind": "OTHER",
                "arguments": [
                    "produce_methods",
                    "inputs",
                    "timeout",
                    "iterations"
                ],
                "returns": "d3m.primitive_interfaces.base.MultiCallResult",
                "description": "A method calling multiple produce methods at once.\n\nWhen a primitive has multiple produce methods it is common that they might compute the\nsame internal results for same inputs but return different representations of those results.\nIf caller is interested in multiple of those representations, calling multiple produce\nmethods might lead to recomputing same internal results multiple times. To address this,\nthis method allows primitive author to implement an optimized version which computes\ninternal results only once for multiple calls of produce methods, but return those different\nrepresentations.\n\nIf any additional method arguments are added to primitive's produce method(s), they have\nto be added to this method as well. This method should accept an union of all arguments\naccepted by primitive's produce method(s) and then use them accordingly when computing\nresults. Despite accepting all arguments they can be passed as ``None`` by the caller\nwhen they are not needed by any of the produce methods in ``produce_methods``.\n\nThe default implementation of this method just calls all produce methods listed in\n``produce_methods`` in order and is potentially inefficient.\n\nIf primitive should have been fitted before calling this method, but it has not been,\nprimitive should raise a ``PrimitiveNotFittedError`` exception.\n\nParameters\n----------\nproduce_methods:\n    A list of names of produce methods to call.\ninputs:\n    The inputs given to all produce methods.\ntimeout:\n    A maximum time this primitive should take to produce outputs for all produce methods\n    listed in ``produce_methods`` argument, in seconds.\niterations:\n    How many of internal iterations should the primitive do.\n\nReturns\n-------\nA dict of values for each produce method wrapped inside ``MultiCallResult``."
            },
            "produce": {
                "kind": "PRODUCE",
                "arguments": [
                    "inputs",
                    "timeout",
                    "iterations"
                ],
                "returns": "d3m.primitive_interfaces.base.CallResult[d3m.container.pandas.DataFrame]",
                "singleton": false,
                "inputs_across_samples": [],
                "description": "Produce primitive's predictions\n\nArguments:\n    inputs {Inputs} -- D3M dataframe containing attributes\n\nKeyword Arguments:\n    timeout {float} -- timeout, not considered (default: {None})\n    iterations {int} -- iterations, not considered (default: {None})\n\nParameters\n----------\ninputs:\n    The inputs of shape [num_inputs, ...].\ntimeout:\n    A maximum time this primitive should take to produce outputs during this method call, in seconds.\niterations:\n    How many of internal iterations should the primitive do.\n\nReturns\n-------\nThe outputs of shape [num_inputs, ...] wrapped inside ``CallResult``."
            },
            "produce_explanations": {
                "kind": "PRODUCE",
                "arguments": [
                    "inputs",
                    "timeout",
                    "iterations"
                ],
                "returns": "d3m.primitive_interfaces.base.CallResult[d3m.container.pandas.DataFrame]",
                "singleton": false,
                "inputs_across_samples": [],
                "description": "Produce explanation masks for primitive's predictions\n\nArguments:\n    inputs {Inputs} -- D3M dataframe containing attributes\n\nKeyword Arguments:\n    timeout {float} -- timeout, not considered (default: {None})\n    iterations {int} -- iterations, not considered (default: {None})"
            },
            "set_params": {
                "kind": "OTHER",
                "arguments": [
                    "params"
                ],
                "returns": "NoneType",
                "description": "Sets parameters of this primitive.\n\nParameters are all parameters of the primitive which can potentially change during a life-time of\na primitive. Parameters which cannot are passed through constructor.\n\nNo other arguments to the method are allowed (except for private arguments).\n\nParameters\n----------\nparams:\n    An instance of parameters."
            },
            "set_training_data": {
                "kind": "OTHER",
                "arguments": [
                    "inputs",
                    "outputs"
                ],
                "returns": "NoneType",
                "description": "Sets primitive's training data\n\nArguments:\n    inputs {Inputs} -- D3M dataframe containing features\n    outputs {Outputs} -- D3M dataframe containing targets\n\nParameters\n----------\ninputs:\n    The inputs.\noutputs:\n    The outputs."
            }
        },
        "class_attributes": {
            "logger": "logging.Logger",
            "metadata": "d3m.metadata.base.PrimitiveMetadata"
        },
        "instance_attributes": {
            "hyperparams": "d3m.metadata.hyperparams.Hyperparams",
            "random_seed": "int",
            "docker_containers": "typing.Dict[str, d3m.primitive_interfaces.base.DockerContainer]",
            "volumes": "typing.Dict[str, str]",
            "temporary_directory": "typing.Union[NoneType, str]"
        },
        "params": {
            "is_fit": "bool",
            "output_column": "str",
            "label_encoder": "sklearn.preprocessing._label.LabelEncoder",
            "nclasses": "int"
        }
    },
    "structural_type": "kf_d3m_primitives.remote_sensing.classifier.mlp_classifier.MlpClassifierPrimitive",
    "description": "This primitive trains a two-layer neural network classifier on featurized remote sensing imagery.\nIt also produces heatmap visualizations for predictions using the gradient-based GradCam technique:\nhttps://arxiv.org/pdf/1610.02391v1.pdf.\n\nTraining inputs: 1) Feature dataframe, 2) Label dataframe\nOutputs: D3M dataset with predictions\n\nAttributes\n----------\nmetadata:\n    Primitive's metadata. Available as a class attribute.\nlogger:\n    Primitive's logger. Available as a class attribute.\nhyperparams:\n    Hyperparams passed to the constructor.\nrandom_seed:\n    Random seed passed to the constructor.\ndocker_containers:\n    A dict mapping Docker image keys from primitive's metadata to (named) tuples containing\n    container's address under which the container is accessible by the primitive, and a\n    dict mapping exposed ports to ports on that address.\nvolumes:\n    A dict mapping volume keys from primitive's metadata to file and directory paths\n    where downloaded and extracted files are available to the primitive.\ntemporary_directory:\n    An absolute path to a temporary directory a primitive can use to store any files\n    for the duration of the current pipeline run phase. Directory is automatically\n    cleaned up after the current pipeline run phase finishes.",
    "digest": "df5db3a068b03e6aa09f6350dbbed0402242a76a551f3f79e66cf7002da8d442"
}
