{
    "id": "50f89f90-7cef-4bb6-b56f-642f85bd1d58",
    "version": "0.0.5",
    "name": "SSC_OMP",
    "description": "This code implements the subspace clustering algorithm described in\nChong You, Daniel Robinson, Rene Vidal,\n\"Scalable Sparse Subspace Clustering by Orthogonal Matching Pursuit\", CVPR 2016.\n\nIt performs the OMP algorithm on every column of X using all other columns as a\ndictionary\n\n:param data: A dxN numpy array\n:param K: The maximum subspace dimension\n:param thres: termination condition\n:return: the SSC-OMP representation of the data\n\nAttributes\n----------\nmetadata : PrimitiveMetadata\n    Primitive's metadata. Available as a class attribute.\nlogger : Logger\n    Primitive's logger. Available as a class attribute.\nhyperparams : Hyperparams\n    Hyperparams passed to the constructor.\nrandom_seed : int\n    Random seed passed to the constructor.\ndocker_containers : Dict[str, DockerContainer]\n    A dict mapping Docker image keys from primitive's metadata to (named) tuples containing\n    container's address under which the container is accessible by the primitive, and a\n    dict mapping exposed ports to ports on that address.\nvolumes : Dict[str, str]\n    A dict mapping volume keys from primitive's metadata to file and directory paths\n    where downloaded and extracted files are available to the primitive.\ntemporary_directory : str\n    An absolute path to a temporary directory a primitive can use to store any files\n    for the duration of the current pipeline run phase. Directory is automatically\n    cleaned up after the current pipeline run phase finishes.",
    "keywords": [
        "clustering",
        "subspace",
        "sparse",
        "orthogonal matching pursuit"
    ],
    "source": {
        "name": "Michigan",
        "contact": "mailto:davjoh@umich.edu",
        "uris": [
            "https://github.com/dvdmjohnson/d3m_michigan_primitives/blob/master/spider/cluster/ssc_omp/ssc_omp.py",
            "https://github.com/dvdmjohnson/d3m_michigan_primitives"
        ],
        "citation": "@inproceedings{you2016scalable,\n  title={Scalable sparse subspace clustering by orthogonal matching pursuit},\n  author={You, Chong and Robinson, Daniel and Vidal, Ren{'e}},\n  booktitle={Proceedings of the IEEE Conference on Computer Vision and Pattern Recognition},\n  pages={3918--3927},\n  year={2016}}"
    },
    "installation": [
        {
            "type": "PIP",
            "package_uri": "git+https://github.com/dvdmjohnson/d3m_michigan_primitives.git@d040be3fc7070669a081df53d9e5117a2349234d#egg=spider"
        },
        {
            "type": "UBUNTU",
            "package": "ffmpeg",
            "version": "7:2.8.11-0ubuntu0.16.04.1"
        }
    ],
    "python_path": "d3m.primitives.clustering.ssc_omp.Umich",
    "hyperparams_to_tune": [
        "n_clusters",
        "sparsity_level"
    ],
    "algorithm_types": [
        "SUBSPACE_CLUSTERING"
    ],
    "primitive_family": "CLUSTERING",
    "schema": "https://metadata.datadrivendiscovery.org/schemas/v0/primitive.json",
    "original_python_path": "spider.cluster.ssc_omp.ssc_omp.SSC_OMP",
    "primitive_code": {
        "class_type_arguments": {
            "Inputs": "d3m.container.numpy.ndarray",
            "Outputs": "d3m.container.numpy.ndarray",
            "Params": "NoneType",
            "Hyperparams": "spider.cluster.ssc_omp.ssc_omp.SSC_OMPHyperparams",
            "DistanceMatrixOutput": "d3m.container.numpy.ndarray"
        },
        "interfaces_version": "2020.1.9",
        "interfaces": [
            "clustering.ClusteringDistanceMatrixMixin",
            "clustering.ClusteringTransformerPrimitiveBase",
            "transformer.TransformerPrimitiveBase",
            "base.PrimitiveBase"
        ],
        "hyperparams": {
            "n_clusters": {
                "type": "d3m.metadata.hyperparams.Bounded",
                "default": 2,
                "structural_type": "int",
                "semantic_types": [
                    "https://metadata.datadrivendiscovery.org/types/ControlParameter"
                ],
                "description": "number of subspaces/clusters to learn",
                "lower": 2,
                "upper": null,
                "lower_inclusive": true,
                "upper_inclusive": false
            },
            "sparsity_level": {
                "type": "d3m.metadata.hyperparams.UniformInt",
                "default": 3,
                "structural_type": "int",
                "semantic_types": [
                    "https://metadata.datadrivendiscovery.org/types/TuningParameter"
                ],
                "description": "The algorithm terminates when it has selected this many regression coefficients.",
                "lower": 3,
                "upper": 50,
                "lower_inclusive": true,
                "upper_inclusive": true
            },
            "thresh": {
                "type": "d3m.metadata.hyperparams.LogUniform",
                "default": 1e-06,
                "structural_type": "float",
                "semantic_types": [
                    "https://metadata.datadrivendiscovery.org/types/TuningParameter"
                ],
                "description": "Minimum regression residual for termination.",
                "lower": 1e-10,
                "upper": 1,
                "lower_inclusive": true,
                "upper_inclusive": true
            }
        },
        "arguments": {
            "hyperparams": {
                "type": "spider.cluster.ssc_omp.ssc_omp.SSC_OMPHyperparams",
                "kind": "RUNTIME"
            },
            "random_seed": {
                "type": "int",
                "kind": "RUNTIME",
                "default": 0
            },
            "docker_containers": {
                "type": "typing.Union[NoneType, typing.Dict[str, d3m.primitive_interfaces.base.DockerContainer]]",
                "kind": "RUNTIME",
                "default": null
            },
            "timeout": {
                "type": "typing.Union[NoneType, float]",
                "kind": "RUNTIME",
                "default": null
            },
            "iterations": {
                "type": "typing.Union[NoneType, int]",
                "kind": "RUNTIME",
                "default": null
            },
            "produce_methods": {
                "type": "typing.Sequence[str]",
                "kind": "RUNTIME"
            },
            "inputs": {
                "type": "d3m.container.numpy.ndarray",
                "kind": "PIPELINE"
            },
            "params": {
                "type": "NoneType",
                "kind": "RUNTIME"
            }
        },
        "class_methods": {
            "can_accept": {
                "arguments": {
                    "method_name": {
                        "type": "str"
                    },
                    "arguments": {
                        "type": "typing.Dict[str, typing.Union[d3m.metadata.base.Metadata, type]]"
                    },
                    "hyperparams": {
                        "type": "spider.cluster.ssc_omp.ssc_omp.SSC_OMPHyperparams"
                    }
                },
                "returns": "typing.Union[NoneType, d3m.metadata.base.DataMetadata]"
            }
        },
        "instance_methods": {
            "__init__": {
                "kind": "OTHER",
                "arguments": [
                    "hyperparams",
                    "random_seed",
                    "docker_containers"
                ],
                "returns": "NoneType"
            },
            "fit": {
                "kind": "OTHER",
                "arguments": [
                    "timeout",
                    "iterations"
                ],
                "returns": "d3m.primitive_interfaces.base.CallResult[NoneType]",
                "description": "A noop.\n\nParameters\n----------\ntimeout : float\n    A maximum time this primitive should be fitting during this method call, in seconds.\niterations : int\n    How many of internal iterations should the primitive do.\n\nReturns\n-------\nCallResult[None]\n    A ``CallResult`` with ``None`` value."
            },
            "fit_multi_produce": {
                "kind": "OTHER",
                "arguments": [
                    "produce_methods",
                    "inputs",
                    "timeout",
                    "iterations"
                ],
                "returns": "d3m.primitive_interfaces.base.MultiCallResult",
                "description": "A method calling ``fit`` and after that multiple produce methods at once.\n\nParameters\n----------\nproduce_methods : Sequence[str]\n    A list of names of produce methods to call.\ninputs : Inputs\n    The inputs given to all produce methods.\ntimeout : float\n    A maximum time this primitive should take to both fit the primitive and produce outputs\n    for all produce methods listed in ``produce_methods`` argument, in seconds.\niterations : int\n    How many of internal iterations should the primitive do for both fitting and producing\n    outputs of all produce methods.\n\nReturns\n-------\nMultiCallResult\n    A dict of values for each produce method wrapped inside ``MultiCallResult``."
            },
            "get_params": {
                "kind": "OTHER",
                "arguments": [],
                "returns": "NoneType",
                "description": "A noop.\n\nReturns\n-------\nParams\n    An instance of parameters."
            },
            "multi_produce": {
                "kind": "OTHER",
                "arguments": [
                    "produce_methods",
                    "inputs",
                    "timeout",
                    "iterations"
                ],
                "returns": "d3m.primitive_interfaces.base.MultiCallResult",
                "description": "A method calling multiple produce methods at once.\n\nWhen a primitive has multiple produce methods it is common that they might compute the\nsame internal results for same inputs but return different representations of those results.\nIf caller is interested in multiple of those representations, calling multiple produce\nmethods might lead to recomputing same internal results multiple times. To address this,\nthis method allows primitive author to implement an optimized version which computes\ninternal results only once for multiple calls of produce methods, but return those different\nrepresentations.\n\nIf any additional method arguments are added to primitive's produce method(s), they have\nto be added to this method as well. This method should accept an union of all arguments\naccepted by primitive's produce method(s) and then use them accordingly when computing\nresults.\n\nThe default implementation of this method just calls all produce methods listed in\n``produce_methods`` in order and is potentially inefficient.\n\nIf primitive should have been fitted before calling this method, but it has not been,\nprimitive should raise a ``PrimitiveNotFittedError`` exception.\n\nParameters\n----------\nproduce_methods : Sequence[str]\n    A list of names of produce methods to call.\ninputs : Inputs\n    The inputs given to all produce methods.\ntimeout : float\n    A maximum time this primitive should take to produce outputs for all produce methods\n    listed in ``produce_methods`` argument, in seconds.\niterations : int\n    How many of internal iterations should the primitive do.\n\nReturns\n-------\nMultiCallResult\n    A dict of values for each produce method wrapped inside ``MultiCallResult``."
            },
            "produce": {
                "kind": "PRODUCE",
                "arguments": [
                    "inputs",
                    "timeout",
                    "iterations"
                ],
                "returns": "d3m.primitive_interfaces.base.CallResult[d3m.container.numpy.ndarray]",
                "singleton": false,
                "inputs_across_samples": [],
                "description": "``produce`` method should return a membership map.\n\nA data structure that for each input sample tells to which cluster that sample was assigned to. So ``Outputs``\nshould have the same number of samples than ``Inputs``, and the value at each output sample should represent\na cluster. Consider representing it with just a simple numeric identifier.\n\nIf an implementation of this method computes clusters based on the whole set of input samples,\nuse ``inputs_across_samples`` decorator to mark ``inputs`` as being computed across samples.\n\nParameters\n----------\ninputs : Inputs\n    The inputs of shape [num_inputs, ...].\ntimeout : float\n    A maximum time this primitive should take to produce outputs during this method call, in seconds.\niterations : int\n    How many of internal iterations should the primitive do.\n\nReturns\n-------\nCallResult[Outputs]\n    The outputs of shape [num_inputs, 1] wrapped inside ``CallResult`` for a simple numeric\n    cluster identifier."
            },
            "produce_distance_matrix": {
                "kind": "PRODUCE",
                "arguments": [
                    "inputs",
                    "timeout",
                    "iterations"
                ],
                "returns": "d3m.primitive_interfaces.base.CallResult[d3m.container.numpy.ndarray]",
                "singleton": false,
                "inputs_across_samples": [],
                "description": "Returns 1 - the affinity matrix generated from the subspace-transformed data\n\nParameters\n----------\ninputs : Inputs\n    The inputs of shape [num_inputs, ...].\ntimeout : float\n    A maximum time this primitive should take to produce outputs during this method call, in seconds.\niterations : int\n    How many of internal iterations should the primitive do.\n\nReturns\n-------\nCallResult[DistanceMatrixOutput]\n    The distance matrix of shape [num_inputs, num_inputs, ...] wrapped inside ``CallResult``, where (i, j) element\n    of the matrix represent a distance between i-th and j-th sample in the inputs."
            },
            "set_params": {
                "kind": "OTHER",
                "arguments": [
                    "params"
                ],
                "returns": "NoneType",
                "description": "A noop.\n\nParameters\n----------\nparams : Params\n    An instance of parameters."
            },
            "set_training_data": {
                "kind": "OTHER",
                "arguments": [
                    "inputs"
                ],
                "returns": "NoneType",
                "description": "A noop.\n\nParameters\n----------"
            }
        },
        "class_attributes": {
            "logger": "logging.Logger",
            "metadata": "d3m.metadata.base.PrimitiveMetadata"
        },
        "instance_attributes": {
            "hyperparams": "d3m.metadata.hyperparams.Hyperparams",
            "random_seed": "int",
            "docker_containers": "typing.Dict[str, d3m.primitive_interfaces.base.DockerContainer]",
            "volumes": "typing.Dict[str, str]",
            "temporary_directory": "typing.Union[NoneType, str]"
        }
    },
    "structural_type": "spider.cluster.ssc_omp.ssc_omp.SSC_OMP",
    "digest": "7c1ff85855a8a5b7a5684ca2ef1bf16607fa9e226fad1c8070ff2726480d7ece"
}
