{
    "id": "5a225a51-d2bf-4ac1-b868-c9548f37b6b9",
    "schema": "https://metadata.datadrivendiscovery.org/schemas/v0/pipeline.json",
    "created": "2020-11-14T22:04:56.182749Z",
    "inputs": [
        {
            "name": "inputs"
        }
    ],
    "outputs": [
        {
            "data": "steps.2.produce",
            "name": "Predictions"
        }
    ],
    "steps": [
        {
            "type": "PRIMITIVE",
            "primitive": {
                "id": "09f2eea8-667c-44b8-a955-6a153ba9ccc3",
                "version": "0.1.0",
                "python_path": "d3m.primitives.link_prediction.data_conversion.JHU",
                "name": "jhu.link_pred_graph_reader",
                "digest": "504a4a0f9d0d434dbe0a4c2a66a7c4f5a6b1d15dcd279f671e54be38068849b7"
            },
            "arguments": {
                "inputs": {
                    "type": "CONTAINER",
                    "data": "inputs.0"
                }
            },
            "outputs": [
                {
                    "id": "produce"
                }
            ]
        },
        {
            "type": "PRIMITIVE",
            "primitive": {
                "id": "b940ccbd-9e9b-3166-af50-210bfd79251b",
                "version": "0.1.0",
                "python_path": "d3m.primitives.data_transformation.adjacency_spectral_embedding.JHU",
                "name": "jhu.ase",
                "digest": "07081cc627f45f4f4f7fef21d0d61c9beb61ca8fa8c19612d8a3c1b3201932ff"
            },
            "arguments": {
                "inputs": {
                    "type": "CONTAINER",
                    "data": "steps.0.produce"
                }
            },
            "outputs": [
                {
                    "id": "produce"
                }
            ],
            "hyperparams": {
                "which_elbow": {
                    "type": "VALUE",
                    "data": 1
                },
                "max_dimension": {
                    "type": "VALUE",
                    "data": 2
                },
                "use_attributes": {
                    "type": "VALUE",
                    "data": false
                }
            }
        },
        {
            "type": "PRIMITIVE",
            "primitive": {
                "id": "25e97696-b96f-4f5c-8620-b340fe83414d",
                "version": "0.1.0",
                "python_path": "d3m.primitives.link_prediction.rank_classification.JHU",
                "name": "jhu.link_pred_rc",
                "digest": "0b9394c6570b19b87fb72bfb202c3ff95970eb2dfab69cb881490ec14dc2f6c6"
            },
            "arguments": {
                "inputs": {
                    "type": "CONTAINER",
                    "data": "steps.1.produce"
                }
            },
            "outputs": [
                {
                    "id": "produce"
                }
            ]
        }
    ],
    "digest": "9087a507799e2dcf1018de65b1f5f3f78f36eada7859542a750fea7f4316face"
}