{
    "id": "2b833cc3-c622-4978-9646-2b6e357dfc24",
    "schema": "https://metadata.datadrivendiscovery.org/schemas/v0/pipeline.json",
    "created": "2019-06-17T20:13:26.697491Z",
    "inputs": [
        {
            "name": "dataset inputs"
        }
    ],
    "outputs": [
        {
            "data": "steps.6.produce",
            "name": "output predictions"
        }
    ],
    "steps": [
        {
            "type": "PRIMITIVE",
            "primitive": {
                "id": "4b42ce1e-9b98-4a25-b68e-fad13311eb65",
                "version": "0.3.0",
                "python_path": "d3m.primitives.data_transformation.dataset_to_dataframe.Common",
                "name": "Extract a DataFrame from a Dataset",
                "digest": "8c731129278866c0925c9e88510daae49c4fda6ea86736b3a51fcf93f910d78f"
            },
            "arguments": {
                "inputs": {
                    "type": "CONTAINER",
                    "data": "inputs.0"
                }
            },
            "outputs": [
                {
                    "id": "produce"
                }
            ]
        },
        {
            "type": "PRIMITIVE",
            "primitive": {
                "id": "d510cb7a-1782-4f51-b44c-58f0236e47c7",
                "version": "0.5.0",
                "python_path": "d3m.primitives.data_transformation.column_parser.DataFrameCommon",
                "name": "Parses strings into their types",
                "digest": "911be9946523454abf9b181c306d18698d5535a6237089ec5ebe665f8a8877ac"
            },
            "arguments": {
                "inputs": {
                    "type": "CONTAINER",
                    "data": "steps.0.produce"
                }
            },
            "outputs": [
                {
                    "id": "produce"
                }
            ]
        },
        {
            "type": "PRIMITIVE",
            "primitive": {
                "id": "4503a4c6-42f7-45a1-a1d4-ed69699cf5e1",
                "version": "0.2.0",
                "python_path": "d3m.primitives.data_transformation.extract_columns_by_semantic_types.DataFrameCommon",
                "name": "Extracts columns by semantic type",
                "digest": "9de424ec3b2b44cb8db5adcafd2d1a564ce68bb050c196e05a3fb864d5ae1080"
            },
            "arguments": {
                "inputs": {
                    "type": "CONTAINER",
                    "data": "steps.1.produce"
                }
            },
            "outputs": [
                {
                    "id": "produce"
                }
            ],
            "hyperparams": {
                "semantic_types": {
                    "type": "VALUE",
                    "data": [
                        "https://metadata.datadrivendiscovery.org/types/Attribute"
                    ]
                }
            }
        },
        {
            "type": "PRIMITIVE",
            "primitive": {
                "id": "d016df89-de62-3c53-87ed-c06bb6a23cde",
                "version": "2019.4.4",
                "python_path": "d3m.primitives.data_cleaning.imputer.SKlearn",
                "name": "sklearn.impute.SimpleImputer",
                "digest": "9878fdeb255c5b4fb2beaf053e68b2913e3d7b1c26e40c530c1cb4fe562fde26"
            },
            "arguments": {
                "inputs": {
                    "type": "CONTAINER",
                    "data": "steps.2.produce"
                }
            },
            "outputs": [
                {
                    "id": "produce"
                }
            ]
        },
        {
            "type": "PRIMITIVE",
            "primitive": {
                "id": "4503a4c6-42f7-45a1-a1d4-ed69699cf5e1",
                "version": "0.2.0",
                "python_path": "d3m.primitives.data_transformation.extract_columns_by_semantic_types.DataFrameCommon",
                "name": "Extracts columns by semantic type",
                "digest": "9de424ec3b2b44cb8db5adcafd2d1a564ce68bb050c196e05a3fb864d5ae1080"
            },
            "arguments": {
                "inputs": {
                    "type": "CONTAINER",
                    "data": "steps.1.produce"
                }
            },
            "outputs": [
                {
                    "id": "produce"
                }
            ],
            "hyperparams": {
                "semantic_types": {
                    "type": "VALUE",
                    "data": [
                        "https://metadata.datadrivendiscovery.org/types/TrueTarget"
                    ]
                }
            }
        },
        {
            "type": "PRIMITIVE",
            "primitive": {
                "id": "6bb5824f-cf16-4615-8643-8c1758bd6751",
                "version": "0.1.0",
                "python_path": "d3m.primitives.semisupervised_classification.iterative_labeling.AutonBox",
                "name": "Iterative labeling for semi-supervised learning",
                "digest": "93a9b10ec5258ed0aeb14d06cfb82b9a3464dcb324d299bd8f3781df1550c1d3"
            },
            "arguments": {
                "inputs": {
                    "type": "CONTAINER",
                    "data": "steps.3.produce"
                },
                "outputs": {
                    "type": "CONTAINER",
                    "data": "steps.4.produce"
                }
            },
            "outputs": [
                {
                    "id": "produce"
                }
            ],
            "hyperparams": {
                "blackbox": {
                    "type": "VALUE",
                    "data": {
                        "class": "d3m.primitives.classification.gradient_boosting.SKlearn"
                    }
                }
            }
        },
        {
            "type": "PRIMITIVE",
            "primitive": {
                "id": "8d38b340-f83f-4877-baaa-162f8e551736",
                "version": "0.3.0",
                "python_path": "d3m.primitives.data_transformation.construct_predictions.DataFrameCommon",
                "name": "Construct pipeline predictions output",
                "digest": "686fbff396678a008c160d931be53808f54b07bf71acfedf4c08ba3bf47c2d9a"
            },
            "arguments": {
                "inputs": {
                    "type": "CONTAINER",
                    "data": "steps.5.produce"
                },
                "reference": {
                    "type": "CONTAINER",
                    "data": "steps.0.produce"
                }
            },
            "outputs": [
                {
                    "id": "produce"
                }
            ]
        }
    ],
    "digest": "51e80949d3bf3b643d22a9281eb344bf226bf88f2e7c0082199c5cae1c7774bb"
}