{
  "created": "2020-11-20T21:43:50.232311Z",
  "digest": "38c1bebc9fbf9fa2dd01d854231e38d7f7f878fc5e5d5f61332f1eed9cc38a94",
  "id": "63574b07-7bcd-4142-924e-a41e332c5a29",
  "inputs": [
    {
      "name": "inputs"
    }
  ],
  "outputs": [
    {
      "data": "steps.8.produce",
      "name": "output predictions"
    }
  ],
  "schema": "https://metadata.datadrivendiscovery.org/schemas/v0/pipeline.json",
  "steps": [
    {
      "arguments": {
        "inputs": {
          "data": "inputs.0",
          "type": "CONTAINER"
        }
      },
      "outputs": [
        {
          "id": "produce"
        }
      ],
      "primitive": {
        "digest": "5fd15f9f7b4fcd3a7056c2648a9527d3f2e5f783e2c677d2d496c00bd8dbd54e",
        "id": "4b42ce1e-9b98-4a25-b68e-fad13311eb65",
        "name": "Extract a DataFrame from a Dataset",
        "python_path": "d3m.primitives.data_transformation.dataset_to_dataframe.Common",
        "version": "0.3.0"
      },
      "type": "PRIMITIVE"
    },
    {
      "arguments": {
        "inputs": {
          "data": "steps.0.produce",
          "type": "CONTAINER"
        }
      },
      "hyperparams": {
        "categorical_max_absolute_distinct_values": {
          "data": {
            "case": "unlimited",
            "value": null
          },
          "type": "VALUE"
        },
        "categorical_max_ratio_distinct_values": {
          "data": 0.2,
          "type": "VALUE"
        }
      },
      "outputs": [
        {
          "id": "produce"
        }
      ],
      "primitive": {
        "digest": "353fe97fb4b6ff7a71ec2c890f756faf39d1766a5255eb6f48e6cc56b29e89ca",
        "id": "e193afa1-b45e-4d29-918f-5bb1fa3b88a7",
        "name": "Determine missing semantic types for columns automatically",
        "python_path": "d3m.primitives.schema_discovery.profiler.Common",
        "version": "0.2.0"
      },
      "type": "PRIMITIVE"
    },
    {
      "arguments": {
        "inputs": {
          "data": "steps.1.produce",
          "type": "CONTAINER"
        }
      },
      "outputs": [
        {
          "id": "produce"
        }
      ],
      "primitive": {
        "digest": "0a9d00c7238b1d6cc2822c39206663d070f2f862fa0703f1d1513ef1741a67fc",
        "id": "d510cb7a-1782-4f51-b44c-58f0236e47c7",
        "name": "Parses strings into their types",
        "python_path": "d3m.primitives.data_transformation.column_parser.Common",
        "version": "0.6.0"
      },
      "type": "PRIMITIVE"
    },
    {
      "arguments": {
        "inputs": {
          "data": "steps.2.produce",
          "type": "CONTAINER"
        }
      },
      "hyperparams": {
        "columns": {
          "data": [
            1
          ],
          "type": "VALUE"
        }
      },
      "outputs": [
        {
          "id": "produce"
        }
      ],
      "primitive": {
        "digest": "ff2ad412e5544f4bcf56e8cc5000764e8cb966a70adfa9ab53a509243a558045",
        "id": "3b09ba74-cc90-4f22-9e0a-0cf4f29a7e28",
        "name": "Removes columns",
        "python_path": "d3m.primitives.data_transformation.remove_columns.Common",
        "version": "0.1.0"
      },
      "type": "PRIMITIVE"
    },
    {
      "arguments": {
        "inputs": {
          "data": "steps.3.produce",
          "type": "CONTAINER"
        }
      },
      "hyperparams": {
        "return_result": {
          "data": "replace",
          "type": "VALUE"
        },
        "use_semantic_types": {
          "data": true,
          "type": "VALUE"
        }
      },
      "outputs": [
        {
          "id": "produce"
        }
      ],
      "primitive": {
        "digest": "43fb48a183933b408dc50035882c2259c5e99aa0c6c409198f6b312cec998a16",
        "id": "d016df89-de62-3c53-87ed-c06bb6a23cde",
        "name": "sklearn.impute.SimpleImputer",
        "python_path": "d3m.primitives.data_cleaning.imputer.SKlearn",
        "version": "2020.11.16"
      },
      "type": "PRIMITIVE"
    },
    {
      "arguments": {
        "inputs": {
          "data": "steps.4.produce",
          "type": "CONTAINER"
        }
      },
      "outputs": [
        {
          "id": "produce"
        }
      ],
      "primitive": {
        "digest": "b883d2de6af803cf6f15d5a7437f00ce3b2a465fb1bb3d22bd677c30746e764e",
        "id": "26fc8fd3-f6b2-4c65-8afb-edb54ed2a3e4",
        "name": "Label encoder with an unseen category",
        "python_path": "d3m.primitives.data_transformation.label_encoder.Common",
        "version": "0.2.0"
      },
      "type": "PRIMITIVE"
    },
    {
      "arguments": {
        "inputs": {
          "data": "steps.5.produce",
          "type": "CONTAINER"
        },
        "outputs": {
          "data": "steps.5.produce",
          "type": "CONTAINER"
        }
      },
      "hyperparams": {
        "use_semantic_types": {
          "data": true,
          "type": "VALUE"
        }
      },
      "outputs": [
        {
          "id": "produce"
        }
      ],
      "primitive": {
        "digest": "0a009a2acb429be799e042cb884a65c6fa3d6ba3f56437f0ed6ec3613ecd72a9",
        "id": "1dd82833-5692-39cb-84fb-2455683075f3",
        "name": "sklearn.ensemble.forest.RandomForestClassifier",
        "python_path": "d3m.primitives.classification.random_forest.SKlearn",
        "version": "2020.11.16"
      },
      "type": "PRIMITIVE"
    },
    {
      "arguments": {
        "inputs": {
          "data": "steps.6.produce",
          "type": "CONTAINER"
        }
      },
      "outputs": [
        {
          "id": "produce"
        }
      ],
      "primitive": {
        "digest": "04b3ddedff34b72b88bc254c8f02df3c64a8555732b27bd5bbb0692247d99223",
        "id": "39ae30f7-39ed-40af-8679-5cf108499605",
        "name": "Label decoder for UnseenLabelEncoderPrimitive",
        "python_path": "d3m.primitives.data_transformation.label_decoder.Common",
        "version": "0.1.0"
      },
      "type": "PRIMITIVE"
    },
    {
      "arguments": {
        "inputs": {
          "data": "steps.7.produce",
          "type": "CONTAINER"
        },
        "reference": {
          "data": "steps.0.produce",
          "type": "CONTAINER"
        }
      },
      "outputs": [
        {
          "id": "produce"
        }
      ],
      "primitive": {
        "digest": "ffe122cd61171f8af49213c0c9e4a46bfad313ef4d5d0222817c1c4b1de00e7a",
        "id": "8d38b340-f83f-4877-baaa-162f8e551736",
        "name": "Construct pipeline predictions output",
        "python_path": "d3m.primitives.data_transformation.construct_predictions.Common",
        "version": "0.3.0"
      },
      "type": "PRIMITIVE"
    }
  ]
}