{
    "id": "3410d709-0a13-4187-a1cb-159dd24b584b",
    "version": "1.2.0",
    "name": "DeepAR",
    "keywords": [
        "time series",
        "forecasting",
        "recurrent neural network",
        "autoregressive"
    ],
    "source": {
        "name": "Distil",
        "contact": "mailto:jeffrey.gleason@kungfu.ai",
        "uris": [
            "https://github.com/kungfuai/d3m-primitives"
        ]
    },
    "installation": [
        {
            "type": "PIP",
            "package": "cython",
            "version": "0.29.16"
        },
        {
            "type": "PIP",
            "package_uri": "git+https://github.com/kungfuai/d3m-primitives.git@985acacd7e7eaf592f4ed5de480a37d42706a084#egg=kf-d3m-primitives"
        }
    ],
    "python_path": "d3m.primitives.time_series_forecasting.lstm.DeepAR",
    "algorithm_types": [
        "RECURRENT_NEURAL_NETWORK"
    ],
    "primitive_family": "TIME_SERIES_FORECASTING",
    "schema": "https://metadata.datadrivendiscovery.org/schemas/v0/primitive.json",
    "original_python_path": "primitives.ts_forecasting.deep_ar.deepar.DeepArPrimitive",
    "primitive_code": {
        "class_type_arguments": {
            "Inputs": "d3m.container.pandas.DataFrame",
            "Outputs": "d3m.container.pandas.DataFrame",
            "Params": "primitives.ts_forecasting.deep_ar.deepar.Params",
            "Hyperparams": "primitives.ts_forecasting.deep_ar.deepar.Hyperparams"
        },
        "interfaces_version": "2020.5.18",
        "interfaces": [
            "supervised_learning.SupervisedLearnerPrimitiveBase",
            "base.PrimitiveBase"
        ],
        "hyperparams": {
            "weights_dir": {
                "type": "d3m.metadata.hyperparams.Hyperparameter",
                "default": "deepar_weights",
                "structural_type": "str",
                "semantic_types": [
                    "https://metadata.datadrivendiscovery.org/types/ControlParameter"
                ],
                "description": "weights of trained model will be saved to this filepath"
            },
            "prediction_length": {
                "type": "d3m.metadata.hyperparams.UniformInt",
                "default": 30,
                "structural_type": "int",
                "semantic_types": [
                    "https://metadata.datadrivendiscovery.org/types/TuningParameter"
                ],
                "description": "number of future timesteps to predict",
                "lower": 1,
                "upper": 120,
                "lower_inclusive": true,
                "upper_inclusive": true
            },
            "context_length": {
                "type": "d3m.metadata.hyperparams.UniformInt",
                "default": 30,
                "structural_type": "int",
                "semantic_types": [
                    "https://metadata.datadrivendiscovery.org/types/TuningParameter"
                ],
                "description": "number of context timesteps to consider before prediction, for both training and test",
                "lower": 1,
                "upper": 120,
                "lower_inclusive": true,
                "upper_inclusive": true
            },
            "num_layers": {
                "type": "d3m.metadata.hyperparams.UniformInt",
                "default": 2,
                "structural_type": "int",
                "semantic_types": [
                    "https://metadata.datadrivendiscovery.org/types/TuningParameter"
                ],
                "description": "number of cells to use in the lstm component of the model",
                "lower": 1,
                "upper": 16,
                "lower_inclusive": true,
                "upper_inclusive": true
            },
            "lstm_dim": {
                "type": "d3m.metadata.hyperparams.UniformInt",
                "default": 40,
                "structural_type": "int",
                "semantic_types": [
                    "https://metadata.datadrivendiscovery.org/types/TuningParameter"
                ],
                "description": "number of cells to use in the lstm component of the model",
                "lower": 10,
                "upper": 400,
                "lower_inclusive": true,
                "upper_inclusive": true
            },
            "epochs": {
                "type": "d3m.metadata.hyperparams.UniformInt",
                "default": 50,
                "structural_type": "int",
                "semantic_types": [
                    "https://metadata.datadrivendiscovery.org/types/TuningParameter"
                ],
                "description": "number of training epochs",
                "lower": 1,
                "upper": 9223372036854775807,
                "lower_inclusive": true,
                "upper_inclusive": false
            },
            "steps_per_epoch": {
                "type": "d3m.metadata.hyperparams.UniformInt",
                "default": 100,
                "structural_type": "int",
                "semantic_types": [
                    "https://metadata.datadrivendiscovery.org/types/TuningParameter"
                ],
                "description": "number of steps to do per epoch",
                "lower": 1,
                "upper": 200,
                "lower_inclusive": true,
                "upper_inclusive": true
            },
            "learning_rate": {
                "type": "d3m.metadata.hyperparams.Uniform",
                "default": 0.0001,
                "structural_type": "float",
                "semantic_types": [
                    "https://metadata.datadrivendiscovery.org/types/TuningParameter"
                ],
                "description": "learning rate",
                "lower": 0.0,
                "upper": 1.0,
                "lower_inclusive": true,
                "upper_inclusive": false
            },
            "batch_size": {
                "type": "d3m.metadata.hyperparams.UniformInt",
                "default": 32,
                "structural_type": "int",
                "semantic_types": [
                    "https://metadata.datadrivendiscovery.org/types/TuningParameter"
                ],
                "description": "batch size",
                "lower": 1,
                "upper": 256,
                "lower_inclusive": true,
                "upper_inclusive": true
            },
            "dropout_rate": {
                "type": "d3m.metadata.hyperparams.Uniform",
                "default": 0.1,
                "structural_type": "float",
                "semantic_types": [
                    "https://metadata.datadrivendiscovery.org/types/TuningParameter"
                ],
                "description": "dropout to use in lstm model (input and recurrent transform)",
                "lower": 0.0,
                "upper": 1.0,
                "lower_inclusive": true,
                "upper_inclusive": false
            },
            "count_data": {
                "type": "d3m.metadata.hyperparams.Union",
                "default": null,
                "structural_type": "typing.Union[NoneType, bool]",
                "semantic_types": [
                    "https://metadata.datadrivendiscovery.org/types/ControlParameter"
                ],
                "description": "Whether we should label the target column as real or count (positive) based on user input or automatic selection. For example, user might want to specify positive only count data if target column is real-valued, but domain is >= 0",
                "configuration": {
                    "user_selected": {
                        "type": "d3m.metadata.hyperparams.UniformBool",
                        "default": true,
                        "structural_type": "bool",
                        "semantic_types": []
                    },
                    "auto_selected": {
                        "type": "d3m.metadata.hyperparams.Hyperparameter",
                        "default": null,
                        "structural_type": "NoneType",
                        "semantic_types": []
                    }
                }
            },
            "output_mean": {
                "type": "d3m.metadata.hyperparams.UniformBool",
                "default": true,
                "structural_type": "bool",
                "semantic_types": [
                    "https://metadata.datadrivendiscovery.org/types/ControlParameter"
                ],
                "description": "whether to output mean (or median) forecasts from probability distributions"
            },
            "quantiles": {
                "type": "d3m.metadata.hyperparams.Set",
                "default": [],
                "structural_type": "typing.Sequence[float]",
                "semantic_types": [
                    "https://metadata.datadrivendiscovery.org/types/ControlParameter"
                ],
                "description": "A set of quantiles for which to return estimates from forecast distribution",
                "elements": {
                    "type": "d3m.metadata.hyperparams.Hyperparameter",
                    "default": -1,
                    "structural_type": "float",
                    "semantic_types": []
                },
                "is_configuration": false,
                "min_size": 0
            },
            "number_samples": {
                "type": "d3m.metadata.hyperparams.UniformInt",
                "default": 100,
                "structural_type": "int",
                "semantic_types": [
                    "https://metadata.datadrivendiscovery.org/types/ControlParameter"
                ],
                "description": "number of samples to draw at each timestep from forecast distribution",
                "lower": 1,
                "upper": 1000,
                "lower_inclusive": true,
                "upper_inclusive": true
            }
        },
        "arguments": {
            "hyperparams": {
                "type": "primitives.ts_forecasting.deep_ar.deepar.Hyperparams",
                "kind": "RUNTIME"
            },
            "random_seed": {
                "type": "int",
                "kind": "RUNTIME",
                "default": 0
            },
            "timeout": {
                "type": "typing.Union[NoneType, float]",
                "kind": "RUNTIME",
                "default": null
            },
            "iterations": {
                "type": "typing.Union[NoneType, int]",
                "kind": "RUNTIME",
                "default": null
            },
            "produce_methods": {
                "type": "typing.Sequence[str]",
                "kind": "RUNTIME"
            },
            "inputs": {
                "type": "d3m.container.pandas.DataFrame",
                "kind": "PIPELINE"
            },
            "outputs": {
                "type": "d3m.container.pandas.DataFrame",
                "kind": "PIPELINE"
            },
            "params": {
                "type": "primitives.ts_forecasting.deep_ar.deepar.Params",
                "kind": "RUNTIME"
            }
        },
        "class_methods": {},
        "instance_methods": {
            "__init__": {
                "kind": "OTHER",
                "arguments": [
                    "hyperparams",
                    "random_seed"
                ],
                "returns": "NoneType"
            },
            "fit": {
                "kind": "OTHER",
                "arguments": [
                    "timeout",
                    "iterations"
                ],
                "returns": "d3m.primitive_interfaces.base.CallResult[NoneType]",
                "description": "Fits DeepAR model using training data from set_training_data and hyperparameters\n\nKeyword Arguments:\n    timeout {float} -- timeout, considered (default: {None})\n    iterations {int} -- iterations, considered (default: {None})\n\nReturns:\n    CallResult[None]\n\nParameters\n----------\ntimeout:\n    A maximum time this primitive should be fitting during this method call, in seconds.\niterations:\n    How many of internal iterations should the primitive do.\n\nReturns\n-------\nA ``CallResult`` with ``None`` value."
            },
            "fit_multi_produce": {
                "kind": "OTHER",
                "arguments": [
                    "produce_methods",
                    "inputs",
                    "outputs",
                    "timeout",
                    "iterations"
                ],
                "returns": "d3m.primitive_interfaces.base.MultiCallResult",
                "description": "A method calling ``fit`` and after that multiple produce methods at once.\n\nThis method allows primitive author to implement an optimized version of both fitting\nand producing a primitive on same data.\n\nIf any additional method arguments are added to primitive's ``set_training_data`` method\nor produce method(s), or removed from them, they have to be added to or removed from this\nmethod as well. This method should accept an union of all arguments accepted by primitive's\n``set_training_data`` method and produce method(s) and then use them accordingly when\ncomputing results.\n\nThe default implementation of this method just calls first ``set_training_data`` method,\n``fit`` method, and all produce methods listed in ``produce_methods`` in order and is\npotentially inefficient.\n\nParameters\n----------\nproduce_methods:\n    A list of names of produce methods to call.\ninputs:\n    The inputs given to ``set_training_data`` and all produce methods.\noutputs:\n    The outputs given to ``set_training_data``.\ntimeout:\n    A maximum time this primitive should take to both fit the primitive and produce outputs\n    for all produce methods listed in ``produce_methods`` argument, in seconds.\niterations:\n    How many of internal iterations should the primitive do for both fitting and producing\n    outputs of all produce methods.\n\nReturns\n-------\nA dict of values for each produce method wrapped inside ``MultiCallResult``."
            },
            "get_params": {
                "kind": "OTHER",
                "arguments": [],
                "returns": "primitives.ts_forecasting.deep_ar.deepar.Params",
                "description": "Returns parameters of this primitive.\n\nParameters are all parameters of the primitive which can potentially change during a life-time of\na primitive. Parameters which cannot are passed through constructor.\n\nParameters should include all data which is necessary to create a new instance of this primitive\nbehaving exactly the same as this instance, when the new instance is created by passing the same\nparameters to the class constructor and calling ``set_params``.\n\nNo other arguments to the method are allowed (except for private arguments).\n\nReturns\n-------\nAn instance of parameters."
            },
            "multi_produce": {
                "kind": "OTHER",
                "arguments": [
                    "produce_methods",
                    "inputs",
                    "timeout",
                    "iterations"
                ],
                "returns": "d3m.primitive_interfaces.base.MultiCallResult",
                "description": "A method calling multiple produce methods at once.\n\nWhen a primitive has multiple produce methods it is common that they might compute the\nsame internal results for same inputs but return different representations of those results.\nIf caller is interested in multiple of those representations, calling multiple produce\nmethods might lead to recomputing same internal results multiple times. To address this,\nthis method allows primitive author to implement an optimized version which computes\ninternal results only once for multiple calls of produce methods, but return those different\nrepresentations.\n\nIf any additional method arguments are added to primitive's produce method(s), they have\nto be added to this method as well. This method should accept an union of all arguments\naccepted by primitive's produce method(s) and then use them accordingly when computing\nresults.\n\nThe default implementation of this method just calls all produce methods listed in\n``produce_methods`` in order and is potentially inefficient.\n\nIf primitive should have been fitted before calling this method, but it has not been,\nprimitive should raise a ``PrimitiveNotFittedError`` exception.\n\nParameters\n----------\nproduce_methods:\n    A list of names of produce methods to call.\ninputs:\n    The inputs given to all produce methods.\ntimeout:\n    A maximum time this primitive should take to produce outputs for all produce methods\n    listed in ``produce_methods`` argument, in seconds.\niterations:\n    How many of internal iterations should the primitive do.\n\nReturns\n-------\nA dict of values for each produce method wrapped inside ``MultiCallResult``."
            },
            "produce": {
                "kind": "PRODUCE",
                "arguments": [
                    "inputs",
                    "timeout",
                    "iterations"
                ],
                "returns": "d3m.primitive_interfaces.base.CallResult[d3m.container.pandas.DataFrame]",
                "singleton": false,
                "inputs_across_samples": [],
                "description": "Produce primitive's predictions for specific time series at specific future time instances\n* these specific timesteps / series are specified implicitly by input dataset\n\nArguments:\n    inputs {Inputs} -- D3M dataframe containing attributes\n\nKeyword Arguments:\n    timeout {float} -- timeout, not considered (default: {None})\n    iterations {int} -- iterations, not considered (default: {None})\n\nRaises:\n    PrimitiveNotFittedError: if primitive not fit\n\nReturns:\n    CallResult[Outputs] -- (N, 2) dataframe with d3m_index and value for each prediction slice requested.\n        prediction slice = specific horizon idx for specific series in specific regression\n\nParameters\n----------\ninputs:\n    The inputs of shape [num_inputs, ...].\ntimeout:\n    A maximum time this primitive should take to produce outputs during this method call, in seconds.\niterations:\n    How many of internal iterations should the primitive do.\n\nReturns\n-------\nThe outputs of shape [num_inputs, ...] wrapped inside ``CallResult``."
            },
            "produce_confidence_intervals": {
                "kind": "PRODUCE",
                "arguments": [
                    "inputs",
                    "timeout",
                    "iterations"
                ],
                "returns": "d3m.primitive_interfaces.base.CallResult[d3m.container.pandas.DataFrame]",
                "singleton": false,
                "inputs_across_samples": [],
                "description": "produce quantiles for each prediction timestep in dataframe\n\nArguments:\n    inputs {Inputs} -- D3M dataframe containing attributes\n\nKeyword Arguments:\n    timeout {float} -- timeout, not considered (default: {None})\n    iterations {int} -- iterations, considered (default: {None})\n\nRaises:\n    PrimitiveNotFittedError: \n\nReturns:\n    CallResult[Outputs] -- \n\n    Ex. \n        0.50 | 0.05 | 0.95\n        -------------------\n         5   |   3  |   7\n         6   |   4  |   8\n         5   |   3  |   7\n         6   |   4  |   8"
            },
            "set_params": {
                "kind": "OTHER",
                "arguments": [
                    "params"
                ],
                "returns": "NoneType",
                "description": "Sets parameters of this primitive.\n\nParameters are all parameters of the primitive which can potentially change during a life-time of\na primitive. Parameters which cannot are passed through constructor.\n\nNo other arguments to the method are allowed (except for private arguments).\n\nParameters\n----------\nparams:\n    An instance of parameters."
            },
            "set_training_data": {
                "kind": "OTHER",
                "arguments": [
                    "inputs",
                    "outputs"
                ],
                "returns": "NoneType",
                "description": "Sets primitive's training data\n\nArguments:\n    inputs {Inputs} -- D3M dataframe containing attributes\n    outputs {Outputs} -- D3M dataframe containing targets\n\nRaises:\n    ValueError: If multiple columns are annotated with 'Time' or 'DateTime' metadata\n\nParameters\n----------\ninputs:\n    The inputs.\noutputs:\n    The outputs."
            }
        },
        "class_attributes": {
            "logger": "logging.Logger",
            "metadata": "d3m.metadata.base.PrimitiveMetadata"
        },
        "instance_attributes": {
            "hyperparams": "d3m.metadata.hyperparams.Hyperparams",
            "random_seed": "int",
            "docker_containers": "typing.Dict[str, d3m.primitive_interfaces.base.DockerContainer]",
            "volumes": "typing.Dict[str, str]",
            "temporary_directory": "typing.Union[NoneType, str]"
        },
        "params": {
            "deepar_dataset": "primitives.ts_forecasting.deep_ar.deepar_dataset.DeepARDataset",
            "is_fit": "bool",
            "input_times": "pandas.core.series.Series",
            "timestamp_column": "int",
            "freq": "str",
            "reind_freq": "str",
            "real_cols": "typing.List[int]",
            "cat_cols": "typing.List[int]",
            "group_cols": "typing.List[int]",
            "output_column": "str",
            "max_train": "typing.Union[pandas._libs.tslibs.timestamps.Timestamp, typing.List[pandas._libs.tslibs.timestamps.Timestamp]]"
        }
    },
    "structural_type": "primitives.ts_forecasting.deep_ar.deepar.DeepArPrimitive",
    "description": "Primitive that applies a deep autoregressive forecasting algorithm for time series\nprediction. The implementation is based off of this paper: https://arxiv.org/pdf/1704.04110.pdf\nand this implementation: https://gluon-ts.mxnet.io/index.html\n\nTraining inputs: 1) Feature dataframe, 2) Target dataframe\nOutputs: Dataframe with predictions for specific time series at specific future time instances\n\nArguments:\n    hyperparams {Hyperparams} -- D3M Hyperparameter object\n\nKeyword Arguments:\n    random_seed {int} -- random seed (default: {0})\n\nAttributes\n----------\nmetadata:\n    Primitive's metadata. Available as a class attribute.\nlogger:\n    Primitive's logger. Available as a class attribute.\nhyperparams:\n    Hyperparams passed to the constructor.\nrandom_seed:\n    Random seed passed to the constructor.\ndocker_containers:\n    A dict mapping Docker image keys from primitive's metadata to (named) tuples containing\n    container's address under which the container is accessible by the primitive, and a\n    dict mapping exposed ports to ports on that address.\nvolumes:\n    A dict mapping volume keys from primitive's metadata to file and directory paths\n    where downloaded and extracted files are available to the primitive.\ntemporary_directory:\n    An absolute path to a temporary directory a primitive can use to store any files\n    for the duration of the current pipeline run phase. Directory is automatically\n    cleaned up after the current pipeline run phase finishes.",
    "digest": "f08c3286b88345721b98366f8d35462b229fe3eefb924dec3e3ed059fad74d78"
}
