{
  "created": "2020-11-18T04:43:19.186091Z",
  "digest": "673409ca9e926210d07b22360c4f12ddb298b31795cb312c839f2157add17446",
  "id": "6d61f0b9-3ed4-4be4-aec2-b616539bb7e7",
  "inputs": [
    {
      "name": "inputs"
    }
  ],
  "outputs": [
    {
      "data": "steps.13.produce",
      "name": "output predictions"
    }
  ],
  "schema": "https://metadata.datadrivendiscovery.org/schemas/v0/pipeline.json",
  "steps": [
    {
      "arguments": {
        "inputs": {
          "data": "inputs.0",
          "type": "CONTAINER"
        }
      },
      "outputs": [
        {
          "id": "produce"
        }
      ],
      "primitive": {
        "digest": "eb0e8a70ae9778cc0e7bb8347eb40396577b8085bfe10b0eba26c6c5ce74be4f",
        "id": "4b42ce1e-9b98-4a25-b68e-fad13311eb65",
        "name": "Extract a DataFrame from a Dataset",
        "python_path": "d3m.primitives.data_transformation.dataset_to_dataframe.Common",
        "version": "0.3.0"
      },
      "type": "PRIMITIVE"
    },
    {
      "arguments": {
        "inputs": {
          "data": "steps.0.produce",
          "type": "CONTAINER"
        }
      },
      "hyperparams": {
        "categorical_max_absolute_distinct_values": {
          "data": {
            "case": "unlimited",
            "value": null
          },
          "type": "VALUE"
        },
        "categorical_max_ratio_distinct_values": {
          "data": 1,
          "type": "VALUE"
        }
      },
      "outputs": [
        {
          "id": "produce"
        }
      ],
      "primitive": {
        "digest": "f010a64212bf824e9a9e0fcf1f13061c2745b2c53bc7c9b9a3a60eff8913de2e",
        "id": "e193afa1-b45e-4d29-918f-5bb1fa3b88a7",
        "name": "Determine missing semantic types for columns automatically",
        "python_path": "d3m.primitives.schema_discovery.profiler.Common",
        "version": "0.2.0"
      },
      "type": "PRIMITIVE"
    },
    {
      "arguments": {
        "inputs": {
          "data": "steps.1.produce",
          "type": "CONTAINER"
        }
      },
      "outputs": [
        {
          "id": "produce"
        }
      ],
      "primitive": {
        "digest": "7d35a21b7da54140b6135716cb90512e2bc4d99e7046475bbd4a65dc29d1bf4d",
        "id": "d510cb7a-1782-4f51-b44c-58f0236e47c7",
        "name": "Parses strings into their types",
        "python_path": "d3m.primitives.data_transformation.column_parser.Common",
        "version": "0.6.0"
      },
      "type": "PRIMITIVE"
    },
    {
      "arguments": {
        "inputs": {
          "data": "steps.2.produce",
          "type": "CONTAINER"
        }
      },
      "hyperparams": {
        "return_result": {
          "data": "replace",
          "type": "VALUE"
        },
        "use_semantic_types": {
          "data": true,
          "type": "VALUE"
        }
      },
      "outputs": [
        {
          "id": "produce"
        }
      ],
      "primitive": {
        "digest": "43fb48a183933b408dc50035882c2259c5e99aa0c6c409198f6b312cec998a16",
        "id": "d016df89-de62-3c53-87ed-c06bb6a23cde",
        "name": "sklearn.impute.SimpleImputer",
        "python_path": "d3m.primitives.data_cleaning.imputer.SKlearn",
        "version": "2020.11.16"
      },
      "type": "PRIMITIVE"
    },
    {
      "arguments": {
        "inputs": {
          "data": "steps.3.produce",
          "type": "CONTAINER"
        },
        "outputs": {
          "data": "steps.3.produce",
          "type": "CONTAINER"
        }
      },
      "hyperparams": {
        "use_semantic_types": {
          "data": true,
          "type": "VALUE"
        }
      },
      "outputs": [
        {
          "id": "produce"
        }
      ],
      "primitive": {
        "digest": "0a009a2acb429be799e042cb884a65c6fa3d6ba3f56437f0ed6ec3613ecd72a9",
        "id": "1dd82833-5692-39cb-84fb-2455683075f3",
        "name": "sklearn.ensemble.forest.RandomForestClassifier",
        "python_path": "d3m.primitives.classification.random_forest.SKlearn",
        "version": "2020.11.16"
      },
      "type": "PRIMITIVE"
    },
    {
      "arguments": {
        "inputs": {
          "data": "steps.3.produce",
          "type": "CONTAINER"
        },
        "outputs": {
          "data": "steps.3.produce",
          "type": "CONTAINER"
        }
      },
      "hyperparams": {
        "use_semantic_types": {
          "data": true,
          "type": "VALUE"
        }
      },
      "outputs": [
        {
          "id": "produce"
        }
      ],
      "primitive": {
        "digest": "26bc9f78d258dd7e8a995e6ebc6ffb45f3045d67670f6e0175316ef37eaced23",
        "id": "4210a6a6-14ab-4490-a7dc-460763e70e55",
        "name": "sklearn.ensemble.weight_boosting.AdaBoostClassifier",
        "python_path": "d3m.primitives.classification.ada_boost.SKlearn",
        "version": "2020.11.16"
      },
      "type": "PRIMITIVE"
    },
    {
      "arguments": {
        "inputs": {
          "data": "steps.3.produce",
          "type": "CONTAINER"
        },
        "outputs": {
          "data": "steps.3.produce",
          "type": "CONTAINER"
        }
      },
      "hyperparams": {
        "use_semantic_types": {
          "data": true,
          "type": "VALUE"
        }
      },
      "outputs": [
        {
          "id": "produce"
        }
      ],
      "primitive": {
        "digest": "26a6bcde253170bac311003713f21c8c95e5101ebbdb477020d34f86edfe2b98",
        "id": "01d2c086-91bf-3ca5-b023-5139cf239c77",
        "name": "sklearn.ensemble.gradient_boosting.GradientBoostingClassifier",
        "python_path": "d3m.primitives.classification.gradient_boosting.SKlearn",
        "version": "2020.11.16"
      },
      "type": "PRIMITIVE"
    },
    {
      "arguments": {
        "inputs": {
          "data": [
            "steps.4.produce",
            "steps.5.produce",
            "steps.6.produce"
          ],
          "type": "CONTAINER"
        }
      },
      "outputs": [
        {
          "id": "produce"
        }
      ],
      "primitive": {
        "digest": "54a81eaa2ef55f7e34be1f24fcc26a986df7f5b99fc54119bea571eaa8c1ae2e",
        "id": "3e53391c-74aa-443f-bf2a-8890f3e7d7b6",
        "name": "Concatenate multiple dataframes",
        "python_path": "d3m.primitives.data_transformation.multi_horizontal_concat.Common",
        "version": "0.1.0"
      },
      "type": "PRIMITIVE"
    },
    {
      "arguments": {
        "inputs": {
          "data": "steps.7.produce",
          "type": "CONTAINER"
        }
      },
      "hyperparams": {
        "from_semantic_types": {
          "data": [
            "https://metadata.datadrivendiscovery.org/types/PredictedTarget",
            "https://metadata.datadrivendiscovery.org/types/Target"
          ],
          "type": "VALUE"
        },
        "to_semantic_types": {
          "data": [
            "https://metadata.datadrivendiscovery.org/types/Attribute"
          ],
          "type": "VALUE"
        }
      },
      "outputs": [
        {
          "id": "produce"
        }
      ],
      "primitive": {
        "digest": "001937208cd646fd6d71da608d80a20ce53414384583251cf3f74b010e95f3cb",
        "id": "7bae062e-f8b0-4358-91f2-9288a51f3e82",
        "name": "Replace semantic types for columns",
        "python_path": "d3m.primitives.data_transformation.replace_semantic_types.Common",
        "version": "0.2.0"
      },
      "type": "PRIMITIVE"
    },
    {
      "arguments": {
        "inputs": {
          "data": "steps.8.produce",
          "type": "CONTAINER"
        }
      },
      "outputs": [
        {
          "id": "produce"
        }
      ],
      "primitive": {
        "digest": "3e30bc37f7c8f23db585658811722d445eea73f83aa681535f26968c9bc7db50",
        "id": "a048aaa7-4475-3834-b739-de3105ec7217",
        "name": "sklearn.preprocessing._encoders.OrdinalEncoder",
        "python_path": "d3m.primitives.data_transformation.ordinal_encoder.SKlearn",
        "version": "2020.11.16"
      },
      "type": "PRIMITIVE"
    },
    {
      "arguments": {
        "left": {
          "data": "steps.3.produce",
          "type": "CONTAINER"
        },
        "right": {
          "data": "steps.9.produce",
          "type": "CONTAINER"
        }
      },
      "outputs": [
        {
          "id": "produce"
        }
      ],
      "primitive": {
        "digest": "2c2499a8bdd7655327d77e337870be7c1c2b80aeef707fb9cbf9ef679657da16",
        "id": "aff6a77a-faa0-41c5-9595-de2e7f7c4760",
        "name": "Concatenate two dataframes",
        "python_path": "d3m.primitives.data_transformation.horizontal_concat.DataFrameCommon",
        "version": "0.2.0"
      },
      "type": "PRIMITIVE"
    },
    {
      "arguments": {
        "inputs": {
          "data": "steps.10.produce",
          "type": "CONTAINER"
        }
      },
      "outputs": [
        {
          "id": "produce"
        }
      ],
      "primitive": {
        "digest": "4f4dce7b417eeb1cc6f54e6bf4627d29a7c5b5e50dfa80f62a4f4d21497b2951",
        "id": "7b067a78-4ad4-411d-9cf9-87bcee38ac73",
        "name": "Rename all the duplicated name column in DataFrame",
        "python_path": "d3m.primitives.data_transformation.rename_duplicate_name.DataFrameCommon",
        "version": "0.2.0"
      },
      "type": "PRIMITIVE"
    },
    {
      "arguments": {
        "inputs": {
          "data": "steps.11.produce",
          "type": "CONTAINER"
        },
        "outputs": {
          "data": "steps.11.produce",
          "type": "CONTAINER"
        }
      },
      "hyperparams": {
        "use_semantic_types": {
          "data": true,
          "type": "VALUE"
        }
      },
      "outputs": [
        {
          "id": "produce"
        }
      ],
      "primitive": {
        "digest": "0a009a2acb429be799e042cb884a65c6fa3d6ba3f56437f0ed6ec3613ecd72a9",
        "id": "1dd82833-5692-39cb-84fb-2455683075f3",
        "name": "sklearn.ensemble.forest.RandomForestClassifier",
        "python_path": "d3m.primitives.classification.random_forest.SKlearn",
        "version": "2020.11.16"
      },
      "type": "PRIMITIVE"
    },
    {
      "arguments": {
        "inputs": {
          "data": "steps.12.produce",
          "type": "CONTAINER"
        },
        "reference": {
          "data": "steps.0.produce",
          "type": "CONTAINER"
        }
      },
      "outputs": [
        {
          "id": "produce"
        }
      ],
      "primitive": {
        "digest": "f88b97c4e57c5ac39d40b44d1a841770f5e1b0697ab223f2a149847ec882187b",
        "id": "8d38b340-f83f-4877-baaa-162f8e551736",
        "name": "Construct pipeline predictions output",
        "python_path": "d3m.primitives.data_transformation.construct_predictions.Common",
        "version": "0.3.0"
      },
      "type": "PRIMITIVE"
    }
  ]
}