{
    "created": "2019-11-23T01:30:53.560023Z",
    "digest": "1ffe2a3095999e5fd5885087590b7ef2cba2a08480a54e253c45251c4eb9cd8e",
    "id": "6bb4ac72-12d8-4e0e-9995-925085878ca2",
    "inputs": [
        {
            "name": "inputs"
        }
    ],
    "outputs": [
        {
            "data": "steps.7.produce",
            "name": "output predictions"
        }
    ],
    "schema": "https://metadata.datadrivendiscovery.org/schemas/v0/pipeline.json",
    "steps": [
        {
            "arguments": {
                "inputs": {
                    "data": "inputs.0",
                    "type": "CONTAINER"
                }
            },
            "outputs": [
                {
                    "id": "produce"
                }
            ],
            "primitive": {
                "digest": "bddea02d001c6633722c14643ec2a065fb4a977354ddbdf74282d076da77e530",
                "id": "4b42ce1e-9b98-4a25-b68e-fad13311eb65",
                "name": "Extract a DataFrame from a Dataset",
                "python_path": "d3m.primitives.data_transformation.dataset_to_dataframe.Common",
                "version": "0.3.0"
            },
            "type": "PRIMITIVE"
        },
        {
            "arguments": {
                "inputs": {
                    "data": "steps.0.produce",
                    "type": "CONTAINER"
                }
            },
            "hyperparams": {
                "columns": {
                    "data": [
                        1,
                        4
                    ],
                    "type": "VALUE"
                },
                "semantic_types": {
                    "data": [
                        "https://metadata.datadrivendiscovery.org/types/Attribute"
                    ],
                    "type": "VALUE"
                }
            },
            "outputs": [
                {
                    "id": "produce"
                }
            ],
            "primitive": {
                "digest": "bd1a17fce446bbf6a9c4331aa306b4d8f791510e515d8f4ae8084517ba444648",
                "id": "3002bc5b-fa47-4a3d-882e-a8b5f3d756aa",
                "name": "Remove semantic types from columns",
                "python_path": "d3m.primitives.data_transformation.remove_semantic_types.Common",
                "version": "0.1.0"
            },
            "type": "PRIMITIVE"
        },
        {
            "arguments": {
                "inputs": {
                    "data": "steps.1.produce",
                    "type": "CONTAINER"
                }
            },
            "hyperparams": {
                "semantic_types": {
                    "data": [
                        "https://metadata.datadrivendiscovery.org/types/Attribute"
                    ],
                    "type": "VALUE"
                }
            },
            "outputs": [
                {
                    "id": "produce"
                }
            ],
            "primitive": {
                "digest": "465edb8a31169e414dc8ad5b37c8c0bc07625aae9dc72fbfdc385ea10ed6d36f",
                "id": "4503a4c6-42f7-45a1-a1d4-ed69699cf5e1",
                "name": "Extracts columns by semantic type",
                "python_path": "d3m.primitives.data_transformation.extract_columns_by_semantic_types.Common",
                "version": "0.3.0"
            },
            "type": "PRIMITIVE"
        },
        {
            "arguments": {
                "inputs": {
                    "data": "steps.2.produce",
                    "type": "CONTAINER"
                }
            },
            "outputs": [
                {
                    "id": "produce"
                }
            ],
            "primitive": {
                "digest": "eb5dbe1ea5f37a394864ca802b93228333d60a1cd8f66901ccde8e1b71f98586",
                "id": "854727ed-c82c-3137-ac59-fd52bc9ba385",
                "name": "sklearn.preprocessing.data.RobustScaler",
                "python_path": "d3m.primitives.data_preprocessing.robust_scaler.SKlearn",
                "version": "2019.6.7"
            },
            "type": "PRIMITIVE"
        },
        {
            "arguments": {
                "inputs": {
                    "data": "steps.1.produce",
                    "type": "CONTAINER"
                }
            },
            "hyperparams": {
                "semantic_types": {
                    "data": [
                        "https://metadata.datadrivendiscovery.org/types/TrueTarget"
                    ],
                    "type": "VALUE"
                }
            },
            "outputs": [
                {
                    "id": "produce"
                }
            ],
            "primitive": {
                "digest": "465edb8a31169e414dc8ad5b37c8c0bc07625aae9dc72fbfdc385ea10ed6d36f",
                "id": "4503a4c6-42f7-45a1-a1d4-ed69699cf5e1",
                "name": "Extracts columns by semantic type",
                "python_path": "d3m.primitives.data_transformation.extract_columns_by_semantic_types.Common",
                "version": "0.3.0"
            },
            "type": "PRIMITIVE"
        },
        {
            "arguments": {
                "inputs": {
                    "data": "steps.3.produce",
                    "type": "CONTAINER"
                },
                "outputs": {
                    "data": "steps.4.produce",
                    "type": "CONTAINER"
                }
            },
            "hyperparams": {
                "method": {
                    "data": "BayesFactor",
                    "type": "VALUE"
                },
                "nbins": {
                    "data": 2,
                    "type": "VALUE"
                }
            },
            "outputs": [
                {
                    "id": "produce"
                }
            ],
            "primitive": {
                "digest": "0499e9df1e41142a524f4fb7ce1749b4a84a79437d00644a0579f7b710c43afe",
                "id": "9d1a2e58-5f97-386c-babd-5a9b4e9b6d6c",
                "name": "STMBplus_auto feature selector",
                "python_path": "d3m.primitives.feature_selection.simultaneous_markov_blanket.AutoRPI",
                "version": "v2019.11.10"
            },
            "type": "PRIMITIVE"
        },
        {
            "arguments": {
                "inputs": {
                    "data": "steps.5.produce",
                    "type": "CONTAINER"
                },
                "outputs": {
                    "data": "steps.4.produce",
                    "type": "CONTAINER"
                }
            },
            "hyperparams": {
                "n_estimators": {
                    "data": 2,
                    "type": "VALUE"
                }
            },
            "outputs": [
                {
                    "id": "produce"
                }
            ],
            "primitive": {
                "digest": "bdd395b8100e310361838c8c71032c9e53e9e8eb69a6c42aef84a30cbe1fe2d5",
                "id": "1b2a32a6-0ec5-3ca0-9386-b8b1f1b831d1",
                "name": "sklearn.ensemble.bagging.BaggingClassifier",
                "python_path": "d3m.primitives.classification.bagging.SKlearn",
                "version": "2019.6.7"
            },
            "type": "PRIMITIVE"
        },
        {
            "arguments": {
                "inputs": {
                    "data": "steps.6.produce",
                    "type": "CONTAINER"
                },
                "reference": {
                    "data": "steps.0.produce",
                    "type": "CONTAINER"
                }
            },
            "outputs": [
                {
                    "id": "produce"
                }
            ],
            "primitive": {
                "digest": "5144bad4fea16168f6667c991e137067721dd0573c68ab1bf172ead9e2c82869",
                "id": "8d38b340-f83f-4877-baaa-162f8e551736",
                "name": "Construct pipeline predictions output",
                "python_path": "d3m.primitives.data_transformation.construct_predictions.Common",
                "version": "0.3.0"
            },
            "type": "PRIMITIVE"
        }
    ]
}