{
    "id": "29df6ef0-3c4a-455a-afe8-f9311febca8f",
    "schema": "https://metadata.datadrivendiscovery.org/schemas/v0/pipeline.json",
    "created": "2020-11-13T18:19:31.119721Z",
    "inputs": [
        {
            "name": "inputs"
        }
    ],
    "outputs": [
        {
            "data": "steps.10.produce",
            "name": "output predictions"
        }
    ],
    "steps": [
        {
            "type": "PRIMITIVE",
            "primitive": {
                "id": "f31f8c1f-d1c5-43e5-a4b2-2ae4a761ef2e",
                "version": "0.2.0",
                "python_path": "d3m.primitives.data_transformation.denormalize.Common",
                "name": "Denormalize datasets",
                "digest": "bdcabfa0a37d0793473959bf8ea27050c1c83500fb725f900568570066b67cb3"
            },
            "arguments": {
                "inputs": {
                    "type": "CONTAINER",
                    "data": "inputs.0"
                }
            },
            "outputs": [
                {
                    "id": "produce"
                }
            ]
        },
        {
            "type": "PRIMITIVE",
            "primitive": {
                "id": "4b42ce1e-9b98-4a25-b68e-fad13311eb65",
                "version": "0.3.0",
                "python_path": "d3m.primitives.data_transformation.dataset_to_dataframe.Common",
                "name": "Extract a DataFrame from a Dataset",
                "digest": "3f8e05cacbf2e118298b1e49c5db726b27bd669cbe33ddbea4fc62292ba759bc"
            },
            "arguments": {
                "inputs": {
                    "type": "CONTAINER",
                    "data": "steps.0.produce"
                }
            },
            "outputs": [
                {
                    "id": "produce"
                }
            ]
        },
        {
            "type": "PRIMITIVE",
            "primitive": {
                "id": "e193afa1-b45e-4d29-918f-5bb1fa3b88a7",
                "version": "0.2.0",
                "python_path": "d3m.primitives.schema_discovery.profiler.Common",
                "name": "Determine missing semantic types for columns automatically",
                "digest": "b18b86cf0eb6144760f85880f386fa5a9ab55485f8196e68a4a280b03f48ee0c"
            },
            "arguments": {
                "inputs": {
                    "type": "CONTAINER",
                    "data": "steps.1.produce"
                }
            },
            "outputs": [
                {
                    "id": "produce"
                }
            ]
        },
        {
            "type": "PRIMITIVE",
            "primitive": {
                "id": "d7e14b12-abeb-42d8-942f-bdb077b4fd37",
                "version": "0.1.0",
                "python_path": "d3m.primitives.data_transformation.add_semantic_types.Common",
                "name": "Add semantic types to columns",
                "digest": "e2c8ffd8e973d79acdd08b770f09121c51c8b41d4b3ef2e101a6ca5ee8f77ebd"
            },
            "arguments": {
                "inputs": {
                    "type": "CONTAINER",
                    "data": "steps.2.produce"
                }
            },
            "outputs": [
                {
                    "id": "produce"
                }
            ],
            "hyperparams": {
                "columns": {
                    "type": "VALUE",
                    "data": [
                        1
                    ]
                },
                "semantic_types": {
                    "type": "VALUE",
                    "data": [
                        "http://schema.org/Float"
                    ]
                }
            }
        },
        {
            "type": "PRIMITIVE",
            "primitive": {
                "id": "d510cb7a-1782-4f51-b44c-58f0236e47c7",
                "version": "0.6.0",
                "python_path": "d3m.primitives.data_transformation.column_parser.Common",
                "name": "Parses strings into their types",
                "digest": "dff2ff7c7b648bc37e79ddf772cad768242a66356bd1449fab322195fd03d1d4"
            },
            "arguments": {
                "inputs": {
                    "type": "CONTAINER",
                    "data": "steps.3.produce"
                }
            },
            "outputs": [
                {
                    "id": "produce"
                }
            ]
        },
        {
            "type": "PRIMITIVE",
            "primitive": {
                "id": "4503a4c6-42f7-45a1-a1d4-ed69699cf5e1",
                "version": "0.4.0",
                "python_path": "d3m.primitives.data_transformation.extract_columns_by_semantic_types.Common",
                "name": "Extracts columns by semantic type",
                "digest": "104d2b49f1564c66ae06579d99a99990c7694110e13f7df5679cc0bc6b21257a"
            },
            "arguments": {
                "inputs": {
                    "type": "CONTAINER",
                    "data": "steps.2.produce"
                }
            },
            "outputs": [
                {
                    "id": "produce"
                }
            ],
            "hyperparams": {
                "semantic_types": {
                    "type": "VALUE",
                    "data": [
                        "https://metadata.datadrivendiscovery.org/types/TrueTarget"
                    ]
                }
            }
        },
        {
            "type": "PRIMITIVE",
            "primitive": {
                "id": "4503a4c6-42f7-45a1-a1d4-ed69699cf5e1",
                "version": "0.4.0",
                "python_path": "d3m.primitives.data_transformation.extract_columns_by_semantic_types.Common",
                "name": "Extracts columns by semantic type",
                "digest": "104d2b49f1564c66ae06579d99a99990c7694110e13f7df5679cc0bc6b21257a"
            },
            "arguments": {
                "inputs": {
                    "type": "CONTAINER",
                    "data": "steps.4.produce"
                }
            },
            "outputs": [
                {
                    "id": "produce"
                }
            ],
            "hyperparams": {
                "semantic_types": {
                    "type": "VALUE",
                    "data": [
                        "https://metadata.datadrivendiscovery.org/types/Attribute"
                    ]
                }
            }
        },
        {
            "type": "PRIMITIVE",
            "primitive": {
                "id": "4d46e77b-9c29-4631-b382-02333e928f10",
                "version": "v2020.5.18",
                "python_path": "d3m.primitives.feature_selection.joint_mutual_information.AutoRPI",
                "name": "JMIplus_auto feature selector",
                "digest": "f3ee828d741c8844a2321420a4d388c730a9823a6897b01a4e7b714901a4d224"
            },
            "arguments": {
                "inputs": {
                    "type": "CONTAINER",
                    "data": "steps.6.produce"
                },
                "outputs": {
                    "type": "CONTAINER",
                    "data": "steps.5.produce"
                }
            },
            "outputs": [
                {
                    "id": "produce"
                }
            ],
            "hyperparams": {
                "nbins": {
                    "type": "VALUE",
                    "data": 2
                },
                "method": {
                    "type": "VALUE",
                    "data": "counting"
                }
            }
        },
        {
            "type": "PRIMITIVE",
            "primitive": {
                "id": "d016df89-de62-3c53-87ed-c06bb6a23cde",
                "version": "2020.6.24",
                "python_path": "d3m.primitives.data_cleaning.imputer.SKlearn",
                "name": "sklearn.impute.SimpleImputer",
                "digest": "17e79a8603af05781b6ea5a15055e74157290f3c529a36e81155442f1a8b85eb"
            },
            "arguments": {
                "inputs": {
                    "type": "CONTAINER",
                    "data": "steps.7.produce"
                }
            },
            "outputs": [
                {
                    "id": "produce"
                }
            ],
            "hyperparams": {
                "strategy": {
                    "type": "VALUE",
                    "data": "most_frequent"
                }
            }
        },
        {
            "type": "PRIMITIVE",
            "primitive": {
                "id": "28e8840d-7794-40d2-b5d6-c9e136a6e51e",
                "version": "0.1.0",
                "python_path": "d3m.primitives.classification.canonical_correlation_forests.UBC",
                "name": "Canonical Correlation Forests Classifier",
                "digest": "90284b4eb37e47f9f7483b6a54b93e2b5e5e7c5a42383cda020af0d645b8fdbe"
            },
            "arguments": {
                "inputs": {
                    "type": "CONTAINER",
                    "data": "steps.8.produce"
                },
                "outputs": {
                    "type": "CONTAINER",
                    "data": "steps.5.produce"
                }
            },
            "outputs": [
                {
                    "id": "produce"
                }
            ],
            "hyperparams": {
                "nTrees": {
                    "type": "VALUE",
                    "data": 30
                },
                "splitCriterion": {
                    "type": "VALUE",
                    "data": "info"
                },
                "minPointsLeaf": {
                    "type": "VALUE",
                    "data": 1
                },
                "lambda_": {
                    "type": "VALUE",
                    "data": "log"
                },
                "parallelprocessing": {
                    "type": "VALUE",
                    "data": true
                }
            }
        },
        {
            "type": "PRIMITIVE",
            "primitive": {
                "id": "8d38b340-f83f-4877-baaa-162f8e551736",
                "version": "0.3.0",
                "python_path": "d3m.primitives.data_transformation.construct_predictions.Common",
                "name": "Construct pipeline predictions output",
                "digest": "bad40fe6fc7c899c1f188a43a5fedeabb4a65f14bcc03da2ac20d8ad8e2202f9"
            },
            "arguments": {
                "inputs": {
                    "type": "CONTAINER",
                    "data": "steps.9.produce"
                },
                "reference": {
                    "type": "CONTAINER",
                    "data": "steps.1.produce"
                }
            },
            "outputs": [
                {
                    "id": "produce"
                }
            ]
        }
    ],
    "digest": "f108104e9c7fcb5948d2b8517b8787e2834f9823328d5e5b5126924acac243e4"
}