{
    "id": "80bf0b9e-0f8c-4693-bb09-39010ffb18f1",
    "schema": "https://metadata.datadrivendiscovery.org/schemas/v0/pipeline.json",
    "created": "2020-11-14T22:04:01.669503Z",
    "inputs": [
        {
            "name": "inputs"
        }
    ],
    "outputs": [
        {
            "data": "steps.3.produce",
            "name": "Predictions"
        }
    ],
    "steps": [
        {
            "type": "PRIMITIVE",
            "primitive": {
                "id": "cb192a83-63e2-4075-bab9-e6ba1a8365b6",
                "version": "0.1.0",
                "python_path": "d3m.primitives.data_transformation.load_graphs.JHU",
                "name": "Extract a list of Graphs from a Dataset",
                "digest": "bf7cf1f19f8acaa55797fe5c3c1d1d17111c17c23d71b12f33e160eb103c3fbf"
            },
            "arguments": {
                "inputs": {
                    "type": "CONTAINER",
                    "data": "inputs.0"
                }
            },
            "outputs": [
                {
                    "id": "produce"
                }
            ]
        },
        {
            "type": "PRIMITIVE",
            "primitive": {
                "id": "32fec24f-6861-4a4c-88f3-d4ec2bc1b486",
                "version": "0.1.0",
                "python_path": "d3m.primitives.data_preprocessing.largest_connected_component.JHU",
                "name": "jhu.lcc",
                "digest": "3a50c0720507dd53fea03388cc46e6510e7de47b8ae43eb0c101d416672b4411"
            },
            "arguments": {
                "inputs": {
                    "type": "CONTAINER",
                    "data": "steps.0.produce"
                }
            },
            "outputs": [
                {
                    "id": "produce"
                }
            ]
        },
        {
            "type": "PRIMITIVE",
            "primitive": {
                "id": "8fa6178b-84f7-37d8-87e8-4d3a44c86569",
                "version": "0.1.0",
                "python_path": "d3m.primitives.data_transformation.laplacian_spectral_embedding.JHU",
                "name": "jhu.lse",
                "digest": "219ac6804ef04f0dbad63ca36223737479219a23db58ecac1212b5ce8d3a0efd"
            },
            "arguments": {
                "inputs": {
                    "type": "CONTAINER",
                    "data": "steps.1.produce"
                }
            },
            "outputs": [
                {
                    "id": "produce"
                }
            ],
            "hyperparams": {
                "max_dimension": {
                    "type": "VALUE",
                    "data": 5
                },
                "use_attributes": {
                    "type": "VALUE",
                    "data": true
                }
            }
        },
        {
            "type": "PRIMITIVE",
            "primitive": {
                "id": "5194ef94-3683-319a-9d8d-5c3fdd09de24",
                "version": "0.1.0",
                "python_path": "d3m.primitives.graph_clustering.gaussian_clustering.JHU",
                "name": "jhu.gclust",
                "digest": "6265042fda45d251846b772a04db8c2734107262ec630b166928d97a30c3a5a2"
            },
            "arguments": {
                "inputs": {
                    "type": "CONTAINER",
                    "data": "steps.2.produce"
                }
            },
            "outputs": [
                {
                    "id": "produce"
                }
            ],
            "hyperparams": {
                "max_clusters": {
                    "type": "VALUE",
                    "data": 10
                }
            }
        }
    ],
    "digest": "ee7cfde6166bbdc259e74a983641928fd9772a35cd4e35456029f366e94bcd5d"
}