{
  "created": "2019-06-20T17:55:12.754963Z",
  "digest": "a995722b920a7a66075231e6e52178b36fd1fa7acdb7e031f4a9fd6e16029736",
  "id": "774c143f-0151-429d-9f8c-35143c2e2a33",
  "inputs": [
    {
      "name": "inputs"
    }
  ],
  "outputs": [
    {
      "data": "steps.4.produce",
      "name": "output predictions"
    }
  ],
  "schema": "https://metadata.datadrivendiscovery.org/schemas/v0/pipeline.json",
  "steps": [
    {
      "arguments": {
        "inputs": {
          "data": "inputs.0",
          "type": "CONTAINER"
        }
      },
      "outputs": [
        {
          "id": "produce"
        }
      ],
      "primitive": {
        "digest": "3cddf0ce62f0f2d3a5160472a5f6ddc672d5b278ecb13860d1034cafbb701c4f",
        "id": "4b42ce1e-9b98-4a25-b68e-fad13311eb65",
        "name": "Extract a DataFrame from a Dataset",
        "python_path": "d3m.primitives.data_transformation.dataset_to_dataframe.Common",
        "version": "0.3.0"
      },
      "type": "PRIMITIVE"
    },
    {
      "arguments": {
        "inputs": {
          "data": "steps.0.produce",
          "type": "CONTAINER"
        }
      },
      "outputs": [
        {
          "id": "produce"
        }
      ],
      "primitive": {
        "digest": "43e25a79673fe3b91077f3786bb1b0f6342b5e05f4a69441c10b78cc26388f11",
        "id": "d510cb7a-1782-4f51-b44c-58f0236e47c7",
        "name": "Parses strings into their types",
        "python_path": "d3m.primitives.data_transformation.column_parser.DataFrameCommon",
        "version": "0.5.0"
      },
      "type": "PRIMITIVE"
    },
    {
      "arguments": {
        "inputs": {
          "data": "steps.1.produce",
          "type": "CONTAINER"
        }
      },
      "hyperparams": {
        "return_result": {
          "data": "replace",
          "type": "VALUE"
        },
        "use_semantic_types": {
          "data": true,
          "type": "VALUE"
        }
      },
      "outputs": [
        {
          "id": "produce"
        }
      ],
      "primitive": {
        "digest": "f5a079b6cca11de74f805ed67ef97d0f91642eaca1c833dc1501f762d734159c",
        "id": "d016df89-de62-3c53-87ed-c06bb6a23cde",
        "name": "sklearn.impute.SimpleImputer",
        "python_path": "d3m.primitives.data_cleaning.imputer.SKlearn",
        "version": "2019.6.7"
      },
      "type": "PRIMITIVE"
    },
    {
      "arguments": {
        "inputs": {
          "data": "steps.2.produce",
          "type": "CONTAINER"
        },
        "outputs": {
          "data": "steps.2.produce",
          "type": "CONTAINER"
        }
      },
      "hyperparams": {
        "add_index_columns": {
          "data": true,
          "type": "VALUE"
        },
        "use_semantic_types": {
          "data": true,
          "type": "VALUE"
        }
      },
      "outputs": [
        {
          "id": "produce"
        },
        {
          "id": "produce_optimal_hyperparameters"
        }
      ],
      "primitive": {
        "id": "35321059-2a1a-31fd-9509-5494efc751c7",
        "name": "smac",
        "python_path": "d3m.primitives.schema_discovery.smac.JPLPrimitives",
        "version": "2019.6.7"
      },
      "type": "PRIMITIVE"
    },
    {
      "arguments": {
        "inputs": {
          "data": "steps.3.produce",
          "type": "CONTAINER"
        },
        "reference": {
          "data": "steps.0.produce",
          "type": "CONTAINER"
        }
      },
      "outputs": [
        {
          "id": "produce"
        }
      ],
      "primitive": {
        "digest": "5244439dcb1797396e5f28d350c32774e919fdf0b6657af12b7ec47540ba5220",
        "id": "8d38b340-f83f-4877-baaa-162f8e551736",
        "name": "Construct pipeline predictions output",
        "python_path": "d3m.primitives.data_transformation.construct_predictions.DataFrameCommon",
        "version": "0.3.0"
      },
      "type": "PRIMITIVE"
    }
  ]
}
