{
    "id": "13c521a6-16d0-4560-9bba-d45d1ab3cc86",
    "schema": "https://metadata.datadrivendiscovery.org/schemas/v0/pipeline.json",
    "created": "2019-05-06T20:08:12.432543Z",
    "context": "TESTING",
    "inputs": [
        {
            "name": "inputs"
        }
    ],
    "outputs": [
        {
            "data": "steps.8.produce",
            "name": "Results"
        }
    ],
    "steps": [
        {
            "type": "PRIMITIVE",
            "primitive": {
                "id": "005941a3-e3ca-49d9-9e99-4f5566831acd",
                "version": "1.3.9",
                "python_path": "d3m.primitives.data_preprocessing.dataset_text_reader.DatasetTextReader",
                "name": "Columns text reader"
            },
            "arguments": {
                "inputs": {
                    "type": "CONTAINER",
                    "data": "inputs.0"
                }
            },
            "outputs": [
                {
                    "id": "produce"
                }
            ]
        },
        {
            "type": "PRIMITIVE",
            "primitive": {
                "id": "4b42ce1e-9b98-4a25-b68e-fad13311eb65",
                "version": "0.3.0",
                "python_path": "d3m.primitives.data_transformation.dataset_to_dataframe.Common",
                "name": "Extract a DataFrame from a Dataset"
            },
            "arguments": {
                "inputs": {
                    "type": "CONTAINER",
                    "data": "steps.0.produce"
                }
            },
            "outputs": [
                {
                    "id": "produce"
                }
            ],
            "hyperparams": {
                "dataframe_resource": {
                    "type": "VALUE",
                    "data": null
                }
            }
        },
        {
            "type": "PRIMITIVE",
            "primitive": {
                "id": "4503a4c6-42f7-45a1-a1d4-ed69699cf5e1",
                "version": "0.2.0",
                "python_path": "d3m.primitives.data_transformation.extract_columns_by_semantic_types.DataFrameCommon",
                "name": "Extracts columns by semantic type"
            },
            "arguments": {
                "inputs": {
                    "type": "CONTAINER",
                    "data": "steps.1.produce"
                }
            },
            "outputs": [
                {
                    "id": "produce"
                }
            ],
            "hyperparams": {
                "semantic_types": {
                    "type": "VALUE",
                    "data": [
                        "https://metadata.datadrivendiscovery.org/types/SuggestedTarget"
                    ]
                }
            }
        },
        {
            "type": "PRIMITIVE",
            "primitive": {
                "id": "d510cb7a-1782-4f51-b44c-58f0236e47c7",
                "version": "0.5.0",
                "python_path": "d3m.primitives.data_transformation.column_parser.DataFrameCommon",
                "name": "Parses strings into their types"
            },
            "arguments": {
                "inputs": {
                    "type": "CONTAINER",
                    "data": "steps.1.produce"
                }
            },
            "outputs": [
                {
                    "id": "produce"
                }
            ]
        },
        {
            "type": "PRIMITIVE",
            "primitive": {
                "id": "4503a4c6-42f7-45a1-a1d4-ed69699cf5e1",
                "version": "0.2.0",
                "python_path": "d3m.primitives.data_transformation.extract_columns_by_semantic_types.DataFrameCommon",
                "name": "Extracts columns by semantic type"
            },
            "arguments": {
                "inputs": {
                    "type": "CONTAINER",
                    "data": "steps.3.produce"
                }
            },
            "outputs": [
                {
                    "id": "produce"
                }
            ],
            "hyperparams": {
                "semantic_types": {
                    "type": "VALUE",
                    "data": [
                        "https://metadata.datadrivendiscovery.org/types/Attribute"
                    ]
                }
            }
        },
        {
            "type": "PRIMITIVE",
            "primitive": {
                "id": "6fdcf530-2cfe-4e87-9d9e-b8770753e19c",
                "version": "1.3.9",
                "python_path": "d3m.primitives.data_transformation.conditioner.Conditioner",
                "name": "Autoflow Data Conditioner"
            },
            "arguments": {
                "inputs": {
                    "type": "CONTAINER",
                    "data": "steps.4.produce"
                }
            },
            "outputs": [
                {
                    "id": "produce"
                }
            ],
            "hyperparams": {
                "ensure_numeric": {
                    "type": "VALUE",
                    "data": true
                },
                "maximum_expansion": {
                    "type": "VALUE",
                    "data": 30
                }
            }
        },
        {
            "type": "PRIMITIVE",
            "primitive": {
                "id": "4ae75c66-e8d1-41ec-9d6e-5074e081fbe6",
                "version": "1.3.9",
                "python_path": "d3m.primitives.data_transformation.zero_count.ZeroCount",
                "name": "Zero Count"
            },
            "arguments": {
                "inputs": {
                    "type": "CONTAINER",
                    "data": "steps.5.produce"
                }
            },
            "outputs": [
                {
                    "id": "produce"
                }
            ]
        },
        {
            "type": "PRIMITIVE",
            "primitive": {
                "id": "1dd82833-5692-39cb-84fb-2455683075f3",
                "version": "2019.4.4",
                "python_path": "d3m.primitives.classification.random_forest.SKlearn",
                "name": "sklearn.ensemble.forest.RandomForestClassifier"
            },
            "arguments": {
                "inputs": {
                    "type": "CONTAINER",
                    "data": "steps.6.produce"
                },
                "outputs": {
                    "type": "CONTAINER",
                    "data": "steps.2.produce"
                }
            },
            "outputs": [
                {
                    "id": "produce"
                }
            ],
            "hyperparams": {
                "n_estimators": {
                    "type": "VALUE",
                    "data": 100
                },
                "criterion": {
                    "type": "VALUE",
                    "data": "entropy"
                },
                "max_features": {
                    "type": "VALUE",
                    "data": 0.4
                },
                "max_depth": {
                    "type": "VALUE",
                    "data": null
                },
                "min_samples_split": {
                    "type": "VALUE",
                    "data": 9
                },
                "min_samples_leaf": {
                    "type": "VALUE",
                    "data": 9
                },
                "min_weight_fraction_leaf": {
                    "type": "VALUE",
                    "data": 0
                },
                "max_leaf_nodes": {
                    "type": "VALUE",
                    "data": null
                },
                "min_impurity_decrease": {
                    "type": "VALUE",
                    "data": 0.0
                },
                "bootstrap": {
                    "type": "VALUE",
                    "data": true
                },
                "oob_score": {
                    "type": "VALUE",
                    "data": false
                },
                "n_jobs": {
                    "type": "VALUE",
                    "data": 1
                },
                "warm_start": {
                    "type": "VALUE",
                    "data": false
                },
                "class_weight": {
                    "type": "VALUE",
                    "data": null
                }
            }
        },
        {
            "type": "PRIMITIVE",
            "primitive": {
                "id": "8d38b340-f83f-4877-baaa-162f8e551736",
                "version": "0.3.0",
                "python_path": "d3m.primitives.data_transformation.construct_predictions.DataFrameCommon",
                "name": "Construct pipeline predictions output"
            },
            "arguments": {
                "inputs": {
                    "type": "CONTAINER",
                    "data": "steps.7.produce"
                },
                "reference": {
                    "type": "CONTAINER",
                    "data": "steps.1.produce"
                }
            },
            "outputs": [
                {
                    "id": "produce"
                }
            ]
        }
    ]
}