{
  "id": "dd2d98ed-5d94-4245-a0c9-0861ed7bc177",
  "schema": "https://metadata.datadrivendiscovery.org/schemas/v0/pipeline.json",
  "created": "2020-01-24T01:01:01.853055Z",
  "inputs": [
    {
      "name": "input dataset"
    }
  ],
  "outputs": [
    {
      "data": "steps.4.produce",
      "name": "predictions of input dataset"
    }
  ],
  "steps": [
    {
      "type": "PRIMITIVE",
      "primitive": {
        "id": "f31f8c1f-d1c5-43e5-a4b2-2ae4a761ef2e",
        "version": "0.2.0",
        "python_path": "d3m.primitives.data_transformation.denormalize.Common",
        "name": "Denormalize datasets",
        "digest": "16c9f67b149ccb499e7dfbabba6a4b15c670e10759eefd56ea7ee05e59c41979"
      },
      "arguments": {
        "inputs": {
          "type": "CONTAINER",
          "data": "inputs.0"
        }
      },
      "outputs": [
        {
          "id": "produce"
        }
      ]
    },
    {
      "type": "PRIMITIVE",
      "primitive": {
        "id": "4b42ce1e-9b98-4a25-b68e-fad13311eb65",
        "version": "0.3.0",
        "python_path": "d3m.primitives.data_transformation.dataset_to_dataframe.Common",
        "name": "Extract a DataFrame from a Dataset",
        "digest": "fd3524c43db27ef31bc29c097a0bd7a366510f209d5aff28e6d3e802a35db020"
      },
      "arguments": {
        "inputs": {
          "type": "CONTAINER",
          "data": "steps.0.produce"
        }
      },
      "outputs": [
        {
          "id": "produce"
        }
      ]
    },
    {
      "type": "PRIMITIVE",
      "primitive": {
        "id": "4503a4c6-42f7-45a1-a1d4-ed69699cf5e1",
        "version": "0.4.0",
        "python_path": "d3m.primitives.data_transformation.extract_columns_by_semantic_types.Common",
        "name": "Extracts columns by semantic type",
        "digest": "edb6606a33dc74e0bfc7d149ea7ae1a469d51c6af4e14201775ef9826942528d"
      },
      "arguments": {
        "inputs": {
          "type": "CONTAINER",
          "data": "steps.1.produce"
        }
      },
      "outputs": [
        {
          "id": "produce"
        }
      ],
      "hyperparams": {
        "semantic_types": {
          "type": "VALUE",
          "data": [
            "https://metadata.datadrivendiscovery.org/types/PrimaryMultiKey",
            "https://metadata.datadrivendiscovery.org/types/FileName"
          ]
        }
      }
    },
    {
      "type": "PRIMITIVE",
      "primitive": {
        "id": "4503a4c6-42f7-45a1-a1d4-ed69699cf5e1",
        "version": "0.4.0",
        "python_path": "d3m.primitives.data_transformation.extract_columns_by_semantic_types.Common",
        "name": "Extracts columns by semantic type",
        "digest": "edb6606a33dc74e0bfc7d149ea7ae1a469d51c6af4e14201775ef9826942528d"
      },
      "arguments": {
        "inputs": {
          "type": "CONTAINER",
          "data": "steps.1.produce"
        }
      },
      "outputs": [
        {
          "id": "produce"
        }
      ],
      "hyperparams": {
        "semantic_types": {
          "type": "VALUE",
          "data": [
            "https://metadata.datadrivendiscovery.org/types/TrueTarget"
          ]
        }
      }
    },
    {
      "type": "PRIMITIVE",
      "primitive": {
        "id": "dsbox-featurizer-object-detection-yolo",
        "version": "1.5.3",
        "python_path": "d3m.primitives.feature_extraction.yolo.DSBOX",
        "name": "DSBox Object Detection YOLO",
        "digest": "4db758f3a8b4478272f1b0f5f5f29191b1f6df28872e8ae62e4b7a45f29865bc"
      },
      "arguments": {
        "inputs": {
          "type": "CONTAINER",
          "data": "steps.2.produce"
        },
        "outputs": {
          "type": "CONTAINER",
          "data": "steps.3.produce"
        }
      },
      "outputs": [
        {
          "id": "produce"
        }
      ],
      "hyperparams": {
        "epochs": {
          "type": "VALUE",
          "data": 100
        },
        "use_fitted_weight": {
          "type": "VALUE",
          "data": false
        },
        "test_batch_size": {
          "type": "VALUE",
          "data": 4
        },
        "train_batch_size": {
          "type": "VALUE",
          "data": 4
        },
        "nms_threshold": {
          "type": "VALUE",
          "data": 0.4
        },
        "lr_init": {
          "type": "VALUE",
          "data": 0.001
        },
        "lr_end": {
          "type": "VALUE",
          "data": 1e-06
        },
        "confidences_threshold": {
          "type": "VALUE",
          "data": 0.5
        }
      }
    }
  ],
  "name": "DefaultObjectDetectionTemplate:140186136032384",
  "description": "",
  "digest": "a2cf40308e55eed3e3a90b620bcd8740628738eb0b1038ce9fe7591ca96a92f8"
}
