{
    "id":"d31b11c7-4524-4c81-9569-18502a9c6788",
    "schema":"https://metadata.datadrivendiscovery.org/schemas/v0/pipeline.json",
    "created":"2019-09-10T03:02:10.543552Z",
    "inputs":[
        {
            "name":"inputs"
        }
    ],
    "outputs":[
        {
            "data":"steps.6.produce",
            "name":"output predictions"
        }
    ],
    "steps":[
        {
            "type":"PRIMITIVE",
            "primitive":{
                "id":"4b42ce1e-9b98-4a25-b68e-fad13311eb65",
                "version":"0.3.0",
                "python_path":"d3m.primitives.data_transformation.dataset_to_dataframe.Common",
                "name":"Extract a DataFrame from a Dataset",
                "digest":"458a82145751686619d331a0d15cecb28d6c9f5eeb9450b9ebccf83a0ece49fd"
            },
            "arguments":{
                "inputs":{
                    "type":"CONTAINER",
                    "data":"inputs.0"
                }
            },
            "outputs":[
                {
                    "id":"produce"
                }
            ]
        },
        {
            "type":"PRIMITIVE",
            "primitive":{
                "id":"d510cb7a-1782-4f51-b44c-58f0236e47c7",
                "version":"0.5.0",
                "python_path":"d3m.primitives.data_transformation.column_parser.Common",
                "name":"Parses strings into their types",
                "digest":"14723622d623237138acbbc8b1a8652afd4da72b370ccf11f872502139987f37"
            },
            "arguments":{
                "inputs":{
                    "type":"CONTAINER",
                    "data":"steps.0.produce"
                }
            },
            "outputs":[
                {
                    "id":"produce"
                }
            ]
        },
        {
            "type":"PRIMITIVE",
            "primitive":{
                "id":"4503a4c6-42f7-45a1-a1d4-ed69699cf5e1",
                "version":"0.3.0",
                "python_path":"d3m.primitives.data_transformation.extract_columns_by_semantic_types.Common",
                "name":"Extracts columns by semantic type",
                "digest":"ead1ae24b4da1b6f547e99863347b061dcef80028ac3ff89e37d2bf9d1c5af2f"
            },
            "arguments":{
                "inputs":{
                    "type":"CONTAINER",
                    "data":"steps.1.produce"
                }
            },
            "outputs":[
                {
                    "id":"produce"
                }
            ],
            "hyperparams":{
                "semantic_types":{
                    "type":"VALUE",
                    "data":[
                        "https://metadata.datadrivendiscovery.org/types/Attribute"
                    ]
                }
            }
        },
        {
            "type":"PRIMITIVE",
            "primitive":{
                "id":"4503a4c6-42f7-45a1-a1d4-ed69699cf5e1",
                "version":"0.3.0",
                "python_path":"d3m.primitives.data_transformation.extract_columns_by_semantic_types.Common",
                "name":"Extracts columns by semantic type",
                "digest":"ead1ae24b4da1b6f547e99863347b061dcef80028ac3ff89e37d2bf9d1c5af2f"
            },
            "arguments":{
                "inputs":{
                    "type":"CONTAINER",
                    "data":"steps.0.produce"
                }
            },
            "outputs":[
                {
                    "id":"produce"
                }
            ],
            "hyperparams":{
                "semantic_types":{
                    "type":"VALUE",
                    "data":[
                        "https://metadata.datadrivendiscovery.org/types/TrueTarget"
                    ]
                }
            }
        },
        {
            "type":"PRIMITIVE",
            "primitive":{
                "id":"d016df89-de62-3c53-87ed-c06bb6a23cde",
                "version":"2019.6.7",
                "python_path":"d3m.primitives.data_cleaning.imputer.SKlearn",
                "name":"sklearn.impute.SimpleImputer",
                "digest":"d6902b0ef72b4cd6fc5f79054f7a534404c708e1244e94a2713a9dd525c78eed"
            },
            "arguments":{
                "inputs":{
                    "type":"CONTAINER",
                    "data":"steps.2.produce"
                }
            },
            "outputs":[
                {
                    "id":"produce"
                }
            ]
        },
        {
            "type":"PRIMITIVE",
            "primitive":{
                "id":"99951ce7-193a-408d-96f0-87164b9a2b26",
                "version":"0.1.0",
                "python_path":"d3m.primitives.data_transformation.feature_transform.Brown",
                "name":"Feature Engineering Dataframe Transformer",
                "digest":"1de174a802684197cc9d9ac2ea0a6579e09081a1a8c2a9ae8615f43e9bfaf32f"
            },
            "arguments":{
                "inputs":{
                    "type":"CONTAINER",
                    "data":"steps.4.produce"
                }
            },
            "outputs":[
                {
                    "id":"produce"
                }
            ],
            "hyperparams":{
                "paths":{
                    "type":"VALUE",
                    "data":"[[0, 1]]"
                },
                "operations":{
                    "type":"VALUE",
                    "data":"{\"1\": \"log\"}"
                }
            }
        },
        {
            "type":"PRIMITIVE",
            "primitive":{
                "id":"f0fd7a62-09b5-3abc-93bb-f5f999f7cc80",
                "version":"2019.6.7",
                "python_path":"d3m.primitives.regression.random_forest.SKlearn",
                "name":"sklearn.ensemble.forest.RandomForestRegressor",
                "digest":"3c3999474f76c67c6a30eed8b9a2cdb450e232ae99369ee31cff75cb5044eb11"
            },
            "arguments":{
                "inputs":{
                    "type":"CONTAINER",
                    "data":"steps.5.produce"
                },
                "outputs":{
                    "type":"CONTAINER",
                    "data":"steps.3.produce"
                }
            },
            "outputs":[
                {
                    "id":"produce"
                }
            ]
        }
    ],
    "digest":"6d1321289d94316b4e6c9116c6c906b959620ba210f94b929a39aec59df2d51b"
}
